meta	Lachesis_group0__68_contigs__length_203855924	4345	4595	0.3023390417196562	0.02909341599121937	12	8	[]	5097	1	12
meta	Lachesis_group0__68_contigs__length_203855924	14096	4595	0.30386763351381135	0.027564824197064235	3	3	[]	5097	1	3
meta	Lachesis_group0__68_contigs__length_203855924	9077	4595	0.2749681339598015	0.0564643237510741	88	27	[]	5097	1	88
meta	Lachesis_group0__68_contigs__length_203855924	4361	4595	0.28709446779493064	0.044337989915944925	36	7	[]	5097	1	36
meta	Lachesis_group0__68_contigs__length_203855924	14187	4595	0.3107368279242351	0.02069562978664047	3	2	[]	5097	1	3
meta	Lachesis_group0__68_contigs__length_203855924	4465	4595	0.3020004472443818	0.02943201046649383	20	11	[]	5097	1	20
meta	Lachesis_group0__68_contigs__length_203855924	4227	4595	0.2884932703349967	0.04293918737587891	31	8	[]	5097	1	31
meta	Lachesis_group0__68_contigs__length_203855924	4330	4595	0.27690307842643413	0.05452937928444154	2374	25	[]	5097	1	2374
meta	Lachesis_group0__68_contigs__length_203855924	4240	4595	0.28441036231037947	0.04702209540049613	72	20	[]	5097	1	72
meta	Lachesis_group0__68_contigs__length_203855924	4491	4595	0.2756494936049817	0.055782964105894	3429	43	[]	5097	1	3429
meta	Lachesis_group0__68_contigs__length_203855924	13883	4595	0.28086687662992704	0.050565581080948524	52	13	[]	5097	1	52
meta	Lachesis_group0__68_contigs__length_203855924	13979	4595	0.2861185255074059	0.04531393220346971	278	34	[]	5097	1	278
meta	Lachesis_group0__68_contigs__length_203855924	14117	4595	0.2727963087361228	0.05863614897475298	4008	4	[]	5097	1	4008
meta	Lachesis_group0__68_contigs__length_203855924	4252	4595	0.291649833154064	0.03978262455681162	51	13	3	5097	1	51
meta	Lachesis_group0__68_contigs__length_203855924	8352	4595	0.26884982516743106	0.06258263254344461	4263	124	4	5097	1	4263
meta	Lachesis_group0__68_contigs__length_203855924	13935	4595	0.28318854109990654	0.048243916610969065	71	30	6	5097	1	71
meta	Lachesis_group0__68_contigs__length_203855924	4341	4595	0.24752046729161103	0.08391199041926461	5059	11	4	5097	1	5059
meta	Lachesis_group0__68_contigs__length_203855924	4220	4595	0.312994350509434	0.018438107201441595	2	2	3	5097	1	2
meta	Lachesis_group0__68_contigs__length_203855924	4165	4595	0.29396752956673455	0.03746492814414107	65	15	6	5097	1	65
meta	Lachesis_group10__55_contigs__length_138218214	4156	6462	0.8045918510827441	0.03669090320969086	17	7	[]	3456	1	17
meta	Lachesis_group10__55_contigs__length_138218214	4311	6462	0.8277095634942547	0.013573190798180172	2	2	[]	3456	1	2
meta	Lachesis_group10__55_contigs__length_138218214	13812	6462	0.7999180465452636	0.0413647077471713	359	13	[]	3456	1	359
meta	Lachesis_group10__55_contigs__length_138218214	14295	6462	0.7982146552726734	0.04306809901976145	670	41	[]	3456	1	670
meta	Lachesis_group10__55_contigs__length_138218214	14315	6462	0.8119125915582373	0.029370162734197677	8	4	[]	3456	1	8
meta	Lachesis_group10__55_contigs__length_138218214	4306	6462	0.7795939619122345	0.06168879238020045	3264	3	[]	3456	1	3264
meta	Lachesis_group10__55_contigs__length_138218214	6872	6462	0.7749539840689588	0.06632877022347643	3386	50	[]	3456	1	3386
meta	Lachesis_group10__55_contigs__length_138218214	14492	6462	0.7985946320063322	0.04268812228610264	71	18	[]	3456	1	71
meta	Lachesis_group10__55_contigs__length_138218214	4369	6462	0.8080834487687876	0.03319930552364733	27	16	[]	3456	1	27
meta	Lachesis_group10__55_contigs__length_138218214	13889	6462	0.7945991657585965	0.046683588533838416	249	10	[]	3456	1	249
meta	Lachesis_group10__55_contigs__length_138218214	4264	6462	0.7766631672167659	0.06461958707566914	3368	16	[]	3456	1	3368
meta	Lachesis_group10__55_contigs__length_138218214	13944	6462	0.8038346423962782	0.03744811189615669	55	40	[]	3456	1	55
meta	Lachesis_group10__55_contigs__length_138218214	4255	6462	0.791472382378312	0.04981037191412298	2483	44	[]	3456	1	2483
meta	Lachesis_group10__55_contigs__length_138218214	4293	6462	0.8199923777853264	0.021290376507108494	8	5	[]	3456	1	8
meta	Lachesis_group10__55_contigs__length_138218214	11523	6462	0.8140798242974887	0.02720292999494624	4	2	5	3456	1	4
meta	Lachesis_group10__55_contigs__length_138218214	4503	6462	0.801310763465847	0.03997199082658799	10	8	8	3456	1	10
meta	Lachesis_group10__55_contigs__length_138218214	6825	6462	0.8155451890238997	0.025737565268535205	4	4	4	3456	1	4
meta	Lachesis_group10__55_contigs__length_138218214	13793	6462	0.8037841061187017	0.037498648173733336	47	18	4	3456	1	47
meta	Lachesis_group10__55_contigs__length_138218214	9090	6462	0.7683024655386244	0.07298028875381071	3388	43	4	3456	1	3388
meta	Lachesis_group10__55_contigs__length_138218214	10673	6462	0.7906066694416147	0.05067608485082036	2528	7	3	3456	1	2528
meta	Lachesis_group10__55_contigs__length_138218214	4506	6462	0.7929790686342726	0.04830368565816238	800	77	5	3456	1	800
meta	Lachesis_group11__73_contigs__length_131769366	13928	8718	0.42780862542912357	0.0492571528774551	50	10	[]	3295	1	50
meta	Lachesis_group11__73_contigs__length_131769366	4344	8718	0.4408477200986539	0.03621805820792469	19	13	[]	3295	1	19
meta	Lachesis_group11__73_contigs__length_131769366	14165	8718	0.43905485928998195	0.03801091901659671	16	10	[]	3295	1	16
meta	Lachesis_group11__73_contigs__length_131769366	10164	8718	0.43111418702135307	0.04595159128522558	1121	26	[]	3295	1	1121
meta	Lachesis_group11__73_contigs__length_131769366	14580	8718	0.44076607430162507	0.0362997040049536	24	21	[]	3295	1	24
meta	Lachesis_group11__73_contigs__length_131769366	4459	8718	0.4434228832385665	0.033642895068012144	6	4	[]	3295	1	6
meta	Lachesis_group11__73_contigs__length_131769366	4139	8718	0.41556293164732105	0.06150284665925786	2974	22	[]	3295	1	2974
meta	Lachesis_group11__73_contigs__length_131769366	14002	8718	0.42982151269742763	0.04724426560915103	113	29	[]	3295	1	113
meta	Lachesis_group11__73_contigs__length_131769366	15087	8718	0.43014991458928087	0.04691586371729777	117	48	3	3295	1	117
meta	Lachesis_group11__73_contigs__length_131769366	15201	8718	0.42018698825950235	0.05687879004707634	2836	28	3	3295	1	2836
meta	Lachesis_group11__73_contigs__length_131769366	12195	8718	0.4367543158228443	0.04031146248373432	67	29	4	3295	1	67
meta	Lachesis_group11__73_contigs__length_131769366	13857	8718	0.42810615080709175	0.048959627499487	1892	12	4	3295	1	1892
meta	Lachesis_group11__73_contigs__length_131769366	12176	8718	0.39051464701405175	0.08655113129252691	3235	5	3	3295	1	3235
meta	Lachesis_group12__46_contigs__length_133395132	4229	14466	0.28532867894504904	0.03659368690104826	18	6	[]	3335	1	18
meta	Lachesis_group12__46_contigs__length_133395132	14422	14466	0.23361088489435386	0.08831148095174353	3297	6	[]	3335	1	3297
meta	Lachesis_group12__46_contigs__length_133395132	14105	14466	0.29593024935899626	0.025992116487100994	6	3	[]	3335	1	6
meta	Lachesis_group12__46_contigs__length_133395132	14435	14466	0.29155919069357095	0.030363175152526373	16	9	[]	3335	1	16
meta	Lachesis_group12__46_contigs__length_133395132	13962	14466	0.2936851991724372	0.02823716667366007	13	8	[]	3335	1	13
meta	Lachesis_group12__46_contigs__length_133395132	14219	14466	0.2770162102809358	0.04490615556516149	165	63	[]	3335	1	165
meta	Lachesis_group12__46_contigs__length_133395132	14377	14466	0.28923611567024526	0.03268625017585203	48	15	[]	3335	1	48
meta	Lachesis_group12__46_contigs__length_133395132	13946	14466	0.2991696597302427	0.022752706115854594	5	3	[]	3335	1	5
meta	Lachesis_group12__46_contigs__length_133395132	12220	14466	0.23084483117652294	0.09107753466957441	3298	186	[]	3335	1	3298
meta	Lachesis_group12__46_contigs__length_133395132	14185	14466	0.25943558180092285	0.062486784045174534	3275	23	[]	3335	1	3275
meta	Lachesis_group12__46_contigs__length_133395132	4269	14466	0.2956622933357347	0.026260072510362616	17	2	[]	3335	1	17
meta	Lachesis_group12__46_contigs__length_133395132	14135	14466	0.29267449416984737	0.029247871676249926	17	14	[]	3335	1	17
meta	Lachesis_group12__46_contigs__length_133395132	13959	14466	0.2899801868119726	0.031942179034124725	15	13	[]	3335	1	15
meta	Lachesis_group12__46_contigs__length_133395132	13937	14466	0.28326483668537006	0.03865752916072726	13	12	[]	3335	1	13
meta	Lachesis_group12__46_contigs__length_133395132	14437	14466	0.28952944647181444	0.03239291937428282	33	16	[]	3335	1	33
meta	Lachesis_group12__46_contigs__length_133395132	1245	12241	0.16096118292304912	0.16096118292304912	3305	1	3	3335	1	3305
meta	Lachesis_group12__46_contigs__length_133395132	1272	14466	0.28972512710704934	0.03219723873904795	27	7	4	3335	1	27
meta	Lachesis_group12__46_contigs__length_133395132	4251	14466	0.27830065783463037	0.04362170801146693	57	23	6	3335	1	57
meta	Lachesis_group12__46_contigs__length_133395132	12188	14466	0.268661909859899	0.05326045598619831	2797	13	6	3335	1	2797
meta	Lachesis_group12__46_contigs__length_133395132	4237	14466	0.22941804635689875	0.09250431948919856	3300	18	9	3335	1	3300
meta	Lachesis_group13__58_contigs__length_132030582	14015	15644	0.17624566533059743	0.01892461195367058	5	3	[]	3301	1	5
meta	Lachesis_group13__58_contigs__length_132030582	14573	15644	0.157668754722452	0.03750152256181602	29	9	[]	3301	1	29
meta	Lachesis_group13__58_contigs__length_132030582	14374	15644	0.1457324203244016	0.049437856959866466	2164	12	[]	3301	1	2164
meta	Lachesis_group13__58_contigs__length_132030582	14059	15644	0.17092648363483282	0.024243793649435227	5	2	[]	3301	1	5
meta	Lachesis_group13__58_contigs__length_132030582	14381	15644	0.15871266246976	0.03645761481450803	14	4	[]	3301	1	14
meta	Lachesis_group13__58_contigs__length_132030582	14352	15644	0.1404889725052204	0.05468130477904761	22	14	[]	3301	1	22
meta	Lachesis_group13__58_contigs__length_132030582	14462	15644	0.16276579888165846	0.03240447840260957	21	11	[]	3301	1	21
meta	Lachesis_group13__58_contigs__length_132030582	13901	15644	0.14001507495733623	0.05515520232693181	56	55	[]	3301	1	56
meta	Lachesis_group13__58_contigs__length_132030582	14403	15644	0.16300627069888068	0.032164006585387366	33	7	[]	3301	1	33
meta	Lachesis_group13__58_contigs__length_132030582	14380	15644	0.1517795035339158	0.04339077375035223	178	52	[]	3301	1	178
meta	Lachesis_group13__58_contigs__length_132030582	14056	15644	0.16083233714999434	0.03433794013427371	32	7	[]	3301	1	32
meta	Lachesis_group13__58_contigs__length_132030582	4135	15644	0.14768420874705548	0.047486068537212565	1456	59	[]	3301	1	1456
meta	Lachesis_group13__58_contigs__length_132030582	4447	15644	0.163658626197907	0.031511651086361024	11	5	[]	3301	1	11
meta	Lachesis_group13__58_contigs__length_132030582	14522	15644	0.15742531246257524	0.03774496482169278	34	19	[]	3301	1	34
meta	Lachesis_group13__58_contigs__length_132030582	4259	15845	0.09758513864213425	0.09758513864213425	3270	1	[]	3301	1	3270
meta	Lachesis_group13__58_contigs__length_132030582	14062	15644	0.1420500537883645	0.053120223495903535	31	6	[]	3301	1	31
meta	Lachesis_group13__58_contigs__length_132030582	13981	15644	0.16968279477314135	0.02548748251112669	17	14	[]	3301	1	17
meta	Lachesis_group13__58_contigs__length_132030582	14440	15644	0.1537431045554113	0.04142717272885675	39	14	[]	3301	1	39
meta	Lachesis_group13__58_contigs__length_132030582	13876	15644	0.14854413122525445	0.046626146059013614	527	24	[]	3301	1	527
meta	Lachesis_group13__58_contigs__length_132030582	11207	15644	0.17229078940408188	0.02287948788018616	11	5	3	3301	1	11
meta	Lachesis_group13__58_contigs__length_132030582	8373	15845	0.09758513864213425	0.09758513864213425	3270	1	3	3301	1	3270
meta	Lachesis_group13__58_contigs__length_132030582	4448	15644	0.15266947210651394	0.04250080517775409	89	24	8	3301	1	89
meta	Lachesis_group13__58_contigs__length_132030582	4168	15644	0.1560875336443983	0.039082743639869716	107	79	10	3301	1	107
meta	Lachesis_group14__44_contigs__length_129294686	4327	20997	1.4758586926182162	0.016148624185665254	3	3	[]	3233	1	3
meta	Lachesis_group14__44_contigs__length_129294686	14466	20997	1.4402892691188072	0.051718047685074375	2550	7	[]	3233	1	2550
meta	Lachesis_group14__44_contigs__length_129294686	14080	20997	1.4429611230386534	0.04904619376522824	2284	10	[]	3233	1	2284
meta	Lachesis_group14__44_contigs__length_129294686	4469	20997	1.4346600543557408	0.057347262448140916	2748	40	[]	3233	1	2748
meta	Lachesis_group14__44_contigs__length_129294686	4407	20997	1.4677656741707836	0.02424164263309813	10	7	[]	3233	1	10
meta	Lachesis_group14__44_contigs__length_129294686	4483	20997	1.4437209842599654	0.048286332543916184	38	15	[]	3233	1	38
meta	Lachesis_group14__44_contigs__length_129294686	14044	20997	1.4706379616899898	0.021369355113891826	6	6	[]	3233	1	6
meta	Lachesis_group14__44_contigs__length_129294686	1234	20997	1.4543082108607985	0.037699105943083094	40	39	[]	3233	1	40
meta	Lachesis_group14__44_contigs__length_129294686	4239	20997	1.4490235560686875	0.04298376073519424	54	23	[]	3233	1	54
meta	Lachesis_group14__44_contigs__length_129294686	4326	20997	1.4139425242751194	0.07806479252876258	3166	40	[]	3233	1	3166
meta	Lachesis_group14__44_contigs__length_129294686	4428	20756	0.7460036584019413	0.7460036584019413	3199	1	[]	3233	1	3199
meta	Lachesis_group14__44_contigs__length_129294686	4353	20997	1.4312197555923274	0.060787561211554465	61	18	[]	3233	1	61
meta	Lachesis_group14__44_contigs__length_129294686	4445	20997	1.3614903993315557	0.13051691747232586	3194	23	[]	3233	1	3194
meta	Lachesis_group14__44_contigs__length_129294686	14524	20997	1.4480345574006588	0.043972759403222816	32	19	[]	3233	1	32
meta	Lachesis_group14__44_contigs__length_129294686	14240	20756	0.7460036584019413	0.7460036584019413	3199	1	[]	3233	1	3199
meta	Lachesis_group14__44_contigs__length_129294686	4481	20997	1.4618316552251334	0.030175661578748365	16	8	[]	3233	1	16
meta	Lachesis_group14__44_contigs__length_129294686	14277	20997	1.4534826631058464	0.03852465369803544	39	4	[]	3233	1	39
meta	Lachesis_group14__44_contigs__length_129294686	14289	20997	1.446445211645085	0.045562105158796704	11	5	[]	3233	1	11
meta	Lachesis_group14__44_contigs__length_129294686	4340	20997	1.400020965370762	0.09198635143311978	3181	11	[]	3233	1	3181
meta	Lachesis_group14__44_contigs__length_129294686	4363	20997	1.450933020219694	0.04107429658418756	35	22	[]	3233	1	35
meta	Lachesis_group14__44_contigs__length_129294686	13835	20997	1.466077053032941	0.02593026377094076	12	10	4	3233	1	12
meta	Lachesis_group14__44_contigs__length_129294686	4442	20997	1.4627295375492024	0.029277779254679084	12	8	6	3233	1	12
meta	Lachesis_group14__44_contigs__length_129294686	4397	20997	1.3978508373975043	0.09415647940637732	3183	51	14	3233	1	3183
meta	Lachesis_group14__44_contigs__length_129294686	1253	20997	1.455637065022085	0.03637025178179682	41	19	6	3233	1	41
meta	Lachesis_group14__44_contigs__length_129294686	4357	20997	1.4531272191370763	0.03888009766680534	15	6	4	3233	1	15
meta	Lachesis_group14__44_contigs__length_129294686	4359	20997	1.4473125538769718	0.04469476292690986	1260	36	6	3233	1	1260
meta	Lachesis_group14__44_contigs__length_129294686	10173	20997	1.4464326240297218	0.045574692774159806	168	68	4	3233	1	168
meta	Lachesis_group15__55_contigs__length_125787758	14200	21990	1.6203979019409602	0.04094140335339572	24	8	[]	3145	1	24
meta	Lachesis_group15__55_contigs__length_125787758	14089	21990	1.649329643858001	0.012009661436355026	2	2	[]	3145	1	2
meta	Lachesis_group15__55_contigs__length_125787758	14353	21990	1.6223990199882312	0.03894028530612477	39	3	[]	3145	1	39
meta	Lachesis_group15__55_contigs__length_125787758	14033	21990	1.6313557057236494	0.029983599570706815	12	4	[]	3145	1	12
meta	Lachesis_group15__55_contigs__length_125787758	9049	21990	1.6136649872492548	0.04767431804510124	44	15	[]	3145	1	44
meta	Lachesis_group15__55_contigs__length_125787758	4444	21990	1.6333207547724267	0.02801855052192956	8	4	[]	3145	1	8
meta	Lachesis_group15__55_contigs__length_125787758	14021	21990	1.6225746300543387	0.0387646752400173	26	18	[]	3145	1	26
meta	Lachesis_group15__55_contigs__length_125787758	13831	21990	1.6391337540131223	0.022205551281233665	6	4	[]	3145	1	6
meta	Lachesis_group15__55_contigs__length_125787758	13948	21990	1.5993717383752708	0.06196756691908547	3023	14	[]	3145	1	3023
meta	Lachesis_group15__55_contigs__length_125787758	1203	21990	1.6278856301706228	0.03345367512373344	25	7	4	3145	1	25
meta	Lachesis_group15__55_contigs__length_125787758	12183	21990	1.6119905899006364	0.04934871539371985	61	7	3	3145	1	61
meta	Lachesis_group16__53_contigs__length_120303996	14186	26580	0.411304802881417	0.03714600139267788	44	6	[]	3008	1	44
meta	Lachesis_group16__53_contigs__length_120303996	13902	26580	0.4148476420283499	0.033603162245745034	34	7	[]	3008	1	34
meta	Lachesis_group16__53_contigs__length_120303996	14048	26580	0.42420754077396694	0.024243263500127954	6	2	[]	3008	1	6
meta	Lachesis_group16__53_contigs__length_120303996	14054	26580	0.43158887420901726	0.016861930065077607	3	3	[]	3008	1	3
meta	Lachesis_group16__53_contigs__length_120303996	9037	26580	0.34997640899550886	0.0984743952785861	2967	30	[]	3008	1	2967
meta	Lachesis_group16__53_contigs__length_120303996	14426	26580	0.4138827674986816	0.034568036775413334	4	3	[]	3008	1	4
meta	Lachesis_group16__53_contigs__length_120303996	14313	26580	0.4071869553011026	0.04126384897299232	48	3	[]	3008	1	48
meta	Lachesis_group16__53_contigs__length_120303996	14499	26580	0.4143595426485486	0.034091261625546355	12	10	[]	3008	1	12
meta	Lachesis_group16__53_contigs__length_120303996	14355	26580	0.42242349600582285	0.026027308268272004	13	10	[]	3008	1	13
meta	Lachesis_group16__53_contigs__length_120303996	14150	26580	0.38411687722439347	0.06433392704970156	2816	18	7	3008	1	2816
meta	Lachesis_group16__53_contigs__length_120303996	4321	26580	0.40856064899687866	0.03989015527721623	32	31	4	3008	1	32
meta	Lachesis_group16__53_contigs__length_120303996	6913	26580	0.4054814943302747	0.042969309943820214	108	13	3	3008	1	108
meta	Lachesis_group16__53_contigs__length_120303996	8321	26580	0.4108197314844613	0.037631072789633575	26	21	3	3008	1	26
meta	Lachesis_group16__53_contigs__length_120303996	12190	26580	0.41836935936362873	0.030081444910466187	9	9	3	3008	1	9
meta	Lachesis_group17__52_contigs__length_118315660	4421	28991	0.39526433626959345	0.049992256199514716	2157	29	[]	2958	1	2157
meta	Lachesis_group17__52_contigs__length_118315660	14530	28991	0.426319562071955	0.018937030397153082	2	2	[]	2958	1	2
meta	Lachesis_group17__52_contigs__length_118315660	4376	28991	0.3485332691485732	0.0967233233205349	2902	3	[]	2958	1	2902
meta	Lachesis_group17__52_contigs__length_118315660	4181	28991	0.4008782146088773	0.044378377860230835	20	10	[]	2958	1	20
meta	Lachesis_group17__52_contigs__length_118315660	14074	28991	0.40118121369852555	0.04407537877058255	408	6	[]	2958	1	408
meta	Lachesis_group17__52_contigs__length_118315660	14446	28991	0.39646478020360765	0.0487918122655005	1882	13	[]	2958	1	1882
meta	Lachesis_group17__52_contigs__length_118315660	13880	28991	0.4193401696155088	0.02591642285359927	9	4	[]	2958	1	9
meta	Lachesis_group17__52_contigs__length_118315660	14236	28991	0.4242387098660887	0.021017882603019362	4	4	[]	2958	1	4
meta	Lachesis_group17__52_contigs__length_118315660	14045	28991	0.42400395522935297	0.02125263723975508	10	9	[]	2958	1	10
meta	Lachesis_group17__52_contigs__length_118315660	4461	28991	0.4151398352222785	0.03011675724682965	10	7	[]	2958	1	10
meta	Lachesis_group17__52_contigs__length_118315660	14265	28991	0.4251177731710281	0.02013881929807998	4	3	[]	2958	1	4
meta	Lachesis_group17__52_contigs__length_118315660	14110	28991	0.41092963090638	0.03432696156272806	34	10	[]	2958	1	34
meta	Lachesis_group17__52_contigs__length_118315660	13972	28991	0.3905241100653275	0.054732482403780695	2402	48	[]	2958	1	2402
meta	Lachesis_group17__52_contigs__length_118315660	1270	28991	0.39396455107561	0.051292041393498126	2159	83	8	2958	1	2159
meta	Lachesis_group17__52_contigs__length_118315660	1232	28991	0.3932162032985882	0.05204038917051991	23	16	4	2958	1	23
meta	Lachesis_group17__52_contigs__length_118315660	6884	28991	0.39567403299557175	0.04958255947353643	1986	80	6	2958	1	1986
meta	Lachesis_group17__52_contigs__length_118315660	6922	28991	0.40084825890781195	0.044408333561296115	31	25	6	2958	1	31
meta	Lachesis_group17__52_contigs__length_118315660	4322	28991	0.39078407167694695	0.05447252079216127	2373	4	3	2958	1	2373
meta	Lachesis_group17__52_contigs__length_118315660	12227	28991	0.42545767267441337	0.019798919794694704	2	2	3	2958	1	2
meta	Lachesis_group17__52_contigs__length_118315660	4140	28991	0.4064158820290126	0.038840710440095544	7	2	5	2958	1	7
meta	Lachesis_group18__53_contigs__length_106174747	14541	31010	0.30839022832353025	0.04780337287214045	972	15	[]	2655	1	972
meta	Lachesis_group18__53_contigs__length_106174747	4316	31010	0.31429379352416786	0.04189980767150282	56	4	[]	2655	1	56
meta	Lachesis_group18__53_contigs__length_106174747	14263	31010	0.30202226179955327	0.05417133939611745	2392	28	[]	2655	1	2392
meta	Lachesis_group18__53_contigs__length_106174747	4467	31010	0.33017673591885616	0.026016865276814505	9	7	[]	2655	1	9
meta	Lachesis_group18__53_contigs__length_106174747	4186	31010	0.3014954333436218	0.054698167852048896	2440	4	[]	2655	1	2440
meta	Lachesis_group18__53_contigs__length_106174747	4192	31010	0.30707888897203056	0.04911471222364011	33	22	[]	2655	1	33
meta	Lachesis_group18__53_contigs__length_106174747	14550	31010	0.3310240528254619	0.02516954837020882	11	4	[]	2655	1	11
meta	Lachesis_group18__53_contigs__length_106174747	13800	31010	0.30497028598173137	0.05122331521393931	1640	15	[]	2655	1	1640
meta	Lachesis_group18__53_contigs__length_106174747	14455	31010	0.31844640233980337	0.0377471988558673	50	19	[]	2655	1	50
meta	Lachesis_group18__53_contigs__length_106174747	14284	31010	0.30841710043067333	0.04777650076499733	91	9	[]	2655	1	91
meta	Lachesis_group18__53_contigs__length_106174747	13815	31010	0.3413196718768803	0.0148739293187904	4	3	[]	2655	1	4
meta	Lachesis_group18__53_contigs__length_106174747	14425	31010	0.2988969729991061	0.05729662819656459	2474	22	[]	2655	1	2474
meta	Lachesis_group18__53_contigs__length_106174747	4375	31010	0.3347481577176246	0.021445443478046042	4	3	[]	2655	1	4
meta	Lachesis_group18__53_contigs__length_106174747	13989	31010	0.3302212104703491	0.025972390725321606	4	4	[]	2655	1	4
meta	Lachesis_group18__53_contigs__length_106174747	4362	31010	0.305007029931218	0.05118657126445268	179	72	8	2655	1	179
meta	Lachesis_group18__53_contigs__length_106174747	14950	31010	0.3036355316241335	0.05255806957153722	1659	9	3	2655	1	1659
meta	Lachesis_group18__53_contigs__length_106174747	1206	31010	0.2869790260458073	0.06921457514986354	2586	24	8	2655	1	2586
meta	Lachesis_group18__53_contigs__length_106174747	4451	31010	0.30171087706818156	0.05448272412748915	2439	39	7	2655	1	2439
meta	Lachesis_group18__53_contigs__length_106174747	1214	31010	0.32110311159561455	0.035090489600056146	49	15	7	2655	1	49
meta	Lachesis_group18__53_contigs__length_106174747	4175	31010	0.3237904500021784	0.032403151193492304	48	15	5	2655	1	48
meta	Lachesis_group18__53_contigs__length_106174747	4257	31010	0.27442077950506993	0.08177282169060077	2620	6	7	2655	1	2620
meta	Lachesis_group18__53_contigs__length_106174747	13797	31010	0.3279369181651821	0.028256683030488568	23	20	3	2655	1	23
meta	Lachesis_group19__43_contigs__length_108131866	14209	34139	0.565508683618152	0.033750512164022084	18	10	[]	2704	1	18
meta	Lachesis_group19__43_contigs__length_108131866	14025	34139	0.5636904244520264	0.035568771330147554	30	15	[]	2704	1	30
meta	Lachesis_group19__43_contigs__length_108131866	13887	34139	0.5643968754521143	0.03486232033005972	13	12	[]	2704	1	13
meta	Lachesis_group19__43_contigs__length_108131866	14367	34139	0.524598532231047	0.07466066355112717	2653	6	[]	2704	1	2653
meta	Lachesis_group19__43_contigs__length_108131866	4452	34139	0.5450824269540132	0.05417676882816085	2222	5	[]	2704	1	2222
meta	Lachesis_group19__43_contigs__length_108131866	14232	34139	0.5635368163973591	0.0357223793848149	22	8	[]	2704	1	22
meta	Lachesis_group19__43_contigs__length_108131866	4319	34139	0.5700737589882573	0.02918543679391673	4	4	[]	2704	1	4
meta	Lachesis_group19__43_contigs__length_108131866	14293	34139	0.5626056579240543	0.03665353785811973	34	18	[]	2704	1	34
meta	Lachesis_group19__43_contigs__length_108131866	4350	34139	0.5532011602624012	0.046058035519772764	1038	36	12	2704	1	1038
meta	Lachesis_group19__43_contigs__length_108131866	8327	34139	0.5374718433813461	0.06178735240082803	2630	33	5	2704	1	2630
meta	Lachesis_group19__43_contigs__length_108131866	1298	34139	0.5391439235453545	0.06011527223681967	2628	24	8	2704	1	2628
meta	Lachesis_group19__43_contigs__length_108131866	6885	34139	0.5458661248572747	0.05339307092489939	2166	86	3	2704	1	2166
meta	Lachesis_group1__63_contigs__length_187967259	14398	40623	0.38040383029935076	0.06006368191811689	71	23	[]	4700	1	71
meta	Lachesis_group1__63_contigs__length_187967259	14049	40623	0.385073829313066	0.05539368290440165	4241	8	[]	4700	1	4241
meta	Lachesis_group1__63_contigs__length_187967259	14346	40623	0.40862577127410254	0.03184174094336507	22	14	[]	4700	1	22
meta	Lachesis_group1__63_contigs__length_187967259	4433	40623	0.39323663939849485	0.04723087281897276	122	10	[]	4700	1	122
meta	Lachesis_group1__63_contigs__length_187967259	4415	40623	0.40926051740675395	0.031206994810713665	9	9	[]	4700	1	9
meta	Lachesis_group1__63_contigs__length_187967259	14088	40623	0.38123800986019263	0.05922950235727496	4446	11	[]	4700	1	4446
meta	Lachesis_group1__63_contigs__length_187967259	14174	40623	0.3942746067640902	0.04619290545337737	121	4	[]	4700	1	121
meta	Lachesis_group1__63_contigs__length_187967259	4426	40623	0.42002336642110494	0.02044414579636265	2	2	[]	4700	1	2
meta	Lachesis_group1__63_contigs__length_187967259	14386	40623	0.4140482663675216	0.026419245849945976	3	3	[]	4700	1	3
meta	Lachesis_group1__63_contigs__length_187967259	14344	40623	0.41721882101416324	0.023248691203304365	2	2	[]	4700	1	2
meta	Lachesis_group1__63_contigs__length_187967259	4484	40623	0.41367892246366383	0.02678858975380375	16	3	[]	4700	1	16
meta	Lachesis_group1__63_contigs__length_187967259	14467	40623	0.4125901782852548	0.027877333932212804	24	8	[]	4700	1	24
meta	Lachesis_group1__63_contigs__length_187967259	14036	40623	0.3901546213806425	0.050312890836825164	2931	103	[]	4700	1	2931
meta	Lachesis_group1__63_contigs__length_187967259	14142	40623	0.3942238951083281	0.046243617109139476	574	21	[]	4700	1	574
meta	Lachesis_group1__63_contigs__length_187967259	4475	40623	0.3942746067640902	0.04619290545337737	121	19	[]	4700	1	121
meta	Lachesis_group1__63_contigs__length_187967259	14412	40623	0.41461430733526566	0.02585320488220194	22	9	[]	4700	1	22
meta	Lachesis_group1__63_contigs__length_187967259	14273	40623	0.4082920017578205	0.032175510459647116	13	9	[]	4700	1	13
meta	Lachesis_group1__63_contigs__length_187967259	14297	40623	0.4014323581726489	0.039035154044818755	48	3	[]	4700	1	48
meta	Lachesis_group1__63_contigs__length_187967259	14328	40623	0.3988578923396534	0.04160961987781418	95	9	[]	4700	1	95
meta	Lachesis_group1__63_contigs__length_187967259	14114	40623	0.3965696873898061	0.043897824827661545	101	24	[]	4700	1	101
meta	Lachesis_group1__63_contigs__length_187967259	4400	40623	0.4187633151596799	0.021704197057787727	8	8	[]	4700	1	8
meta	Lachesis_group1__63_contigs__length_187967259	14300	40623	0.41559875583583383	0.024868756381633748	4	3	[]	4700	1	4
meta	Lachesis_group1__63_contigs__length_187967259	14563	40623	0.3988617079082047	0.04160580430926293	43	31	[]	4700	1	43
meta	Lachesis_group1__63_contigs__length_187967259	13999	40623	0.41059366767055855	0.029873844546909077	10	6	[]	4700	1	10
meta	Lachesis_group1__63_contigs__length_187967259	13957	40623	0.3969046143194036	0.043562897898064036	44	7	[]	4700	1	44
meta	Lachesis_group1__63_contigs__length_187967259	13988	40623	0.4054527636552257	0.035014748562241904	20	8	[]	4700	1	20
meta	Lachesis_group1__63_contigs__length_187967259	4308	40623	0.41709943912774333	0.023368073089724287	2	2	[]	4700	1	2
meta	Lachesis_group1__63_contigs__length_187967259	4476	40623	0.4070225127198115	0.03344499949765611	22	17	[]	4700	1	22
meta	Lachesis_group1__63_contigs__length_187967259	4148	40623	0.39242422867811505	0.0480432835393526	2222	30	9	4700	1	2222
meta	Lachesis_group1__63_contigs__length_187967259	8329	40623	0.38419505176828506	0.056272460449182604	4299	31	7	4700	1	4299
meta	Lachesis_group1__63_contigs__length_187967259	4196	40623	0.4109578692333911	0.029509642984076483	12	4	3	4700	1	12
meta	Lachesis_group1__63_contigs__length_187967259	4420	40623	0.39498899131358384	0.04547852090388378	88	14	7	4700	1	88
meta	Lachesis_group1__63_contigs__length_187967259	13921	40623	0.3922486215991278	0.04821889061833977	37	6	3	4700	1	37
meta	Lachesis_group1__63_contigs__length_187967259	9034	40623	0.38629848513544585	0.05416902708202184	4038	48	6	4700	1	4038
meta	Lachesis_group1__63_contigs__length_187967259	1233	40623	0.3928876205835256	0.04757989163394208	1223	12	6	4700	1	1223
meta	Lachesis_group1__63_contigs__length_187967259	6859	40623	0.4202464466312098	0.020221065586257827	2	2	3	4700	1	2
meta	Lachesis_group1__63_contigs__length_187967259	12210	40623	0.4134767112222628	0.026990800995204813	20	17	6	4700	1	20
meta	Lachesis_group1__63_contigs__length_187967259	4137	40623	0.4059147998433673	0.034552712374100285	18	4	3	4700	1	18
meta	Lachesis_group1__63_contigs__length_187967259	6834	40623	0.40204162115947983	0.03842589105798774	23	14	4	4700	1	23
meta	Lachesis_group1__63_contigs__length_187967259	4226	40623	0.4199436825118922	0.0205238297055754	3	2	5	4700	1	3
meta	Lachesis_group1__63_contigs__length_187967259	1277	40623	0.4011658771201013	0.03930163509736626	64	22	5	4700	1	64
meta	Lachesis_group1__63_contigs__length_187967259	1299	40623	0.39743592668943734	0.043031585528030256	59	16	9	4700	1	59
meta	Lachesis_group1__63_contigs__length_187967259	12199	40623	0.4035806974167955	0.03688681480067214	22	17	6	4700	1	22
meta	Lachesis_group1__63_contigs__length_187967259	1275	40623	0.39312166367191315	0.04734584854555454	1135	13	5	4700	1	1135
meta	Lachesis_group20__56_contigs__length_105542877	14543	42198	0.643124321468372	0.03884947437049672	46	25	[]	2639	1	46
meta	Lachesis_group20__56_contigs__length_105542877	4438	42198	0.6245778521020462	0.057395943736822636	2437	7	[]	2639	1	2437
meta	Lachesis_group20__56_contigs__length_105542877	13863	42198	0.6488154479495734	0.03315834788929541	11	7	[]	2639	1	11
meta	Lachesis_group20__56_contigs__length_105542877	14217	42198	0.6465437627493436	0.0354300330895251	17	3	[]	2639	1	17
meta	Lachesis_group20__56_contigs__length_105542877	14309	42198	0.6594922878908238	0.022481507948044877	2	2	[]	2639	1	2
meta	Lachesis_group20__56_contigs__length_105542877	14244	42198	0.6448526615595503	0.037121134279318416	77	9	[]	2639	1	77
meta	Lachesis_group20__56_contigs__length_105542877	14430	42198	0.644320488515436	0.03765330732343272	31	5	[]	2639	1	31
meta	Lachesis_group20__56_contigs__length_105542877	14442	42198	0.6319423761072773	0.05003141973159145	1697	10	[]	2639	1	1697
meta	Lachesis_group20__56_contigs__length_105542877	15219	42198	0.655973031624407	0.02600076421446179	6	6	4	2639	1	6
meta	Lachesis_group20__56_contigs__length_105542877	1254	42198	0.6542725980224544	0.0277011978164143	30	7	3	2639	1	30
meta	Lachesis_group20__56_contigs__length_105542877	6817	42198	0.6562913239564242	0.025682471882444546	2	2	6	2639	1	2
meta	Lachesis_group21__43_contigs__length_103963499	14376	45103	0.486871846193753	0.03224596499790788	12	4	[]	2600	1	12
meta	Lachesis_group21__43_contigs__length_103963499	4332	45103	0.4681548092099136	0.050963001981747344	1223	3	[]	2600	1	1223
meta	Lachesis_group21__43_contigs__length_103963499	14269	45103	0.46998489417136	0.04913291702030084	98	9	[]	2600	1	98
meta	Lachesis_group21__43_contigs__length_103963499	4439	45103	0.4672424978647684	0.05187531332689252	1488	7	[]	2600	1	1488
meta	Lachesis_group21__43_contigs__length_103963499	14572	45103	0.47947574102884377	0.03964207016281712	27	4	[]	2600	1	27
meta	Lachesis_group21__43_contigs__length_103963499	14254	45103	0.47630138064333655	0.04281643054832435	67	8	[]	2600	1	67
meta	Lachesis_group21__43_contigs__length_103963499	14527	45103	0.48348201078236236	0.03563580040929855	29	6	[]	2600	1	29
meta	Lachesis_group21__43_contigs__length_103963499	14502	45103	0.4879659492916029	0.031151861900057976	29	18	[]	2600	1	29
meta	Lachesis_group21__43_contigs__length_103963499	14290	45103	0.45900824828916725	0.0601095629024938	2505	68	[]	2600	1	2505
meta	Lachesis_group21__43_contigs__length_103963499	4279	46049	0.2595589055958309	0.2595589055958309	2566	14	[]	2600	1	2566
meta	Lachesis_group21__43_contigs__length_103963499	13940	45103	0.4701675639292769	0.048950247262384006	1095	18	[]	2600	1	1095
meta	Lachesis_group21__43_contigs__length_103963499	14368	45103	0.4745031648457164	0.04461464634594447	38	33	[]	2600	1	38
meta	Lachesis_group21__43_contigs__length_103963499	4406	45103	0.46587997092732863	0.05323784026433234	2275	13	[]	2600	1	2275
meta	Lachesis_group21__43_contigs__length_103963499	1251	45103	0.40682185294779	0.11229595824387117	2562	17	5	2600	1	2562
meta	Lachesis_group21__43_contigs__length_103963499	1247	45103	0.48429570029340574	0.034822110898255154	31	13	5	2600	1	31
meta	Lachesis_group21__43_contigs__length_103963499	1202	45103	0.4664422453744369	0.05267556581722406	2032	23	3	2600	1	2032
meta	Lachesis_group21__43_contigs__length_103963499	8351	45103	0.47123882169880094	0.04787898949286	776	34	10	2600	1	776
meta	Lachesis_group21__43_contigs__length_103963499	4258	45103	0.47331967563375943	0.04579813555790144	129	19	7	2600	1	129
meta	Lachesis_group21__43_contigs__length_103963499	14545	45103	0.479936659645079	0.03918115154658192	30	7	5	2600	1	30
meta	Lachesis_group22__46_contigs__length_104782409	13868	46406	0.4094150206862661	0.048867519665511616	1352	67	[]	2620	1	1352
meta	Lachesis_group22__46_contigs__length_104782409	14388	46406	0.4028622165441266	0.05542032380765115	75	21	[]	2620	1	75
meta	Lachesis_group22__46_contigs__length_104782409	14311	46406	0.3878121845525889	0.0704703557991889	2541	3	[]	2620	1	2541
meta	Lachesis_group22__46_contigs__length_104782409	14231	46406	0.4040948859034156	0.05418765444836219	2250	23	[]	2620	1	2250
meta	Lachesis_group22__46_contigs__length_104782409	14163	46406	0.43187337501925804	0.02640916533251965	9	7	[]	2620	1	9
meta	Lachesis_group22__46_contigs__length_104782409	13984	46406	0.41006570500011974	0.048216835351657945	1146	52	[]	2620	1	1146
meta	Lachesis_group22__46_contigs__length_104782409	14456	46406	0.42497243970331	0.03331010064846771	17	14	[]	2620	1	17
meta	Lachesis_group22__46_contigs__length_104782409	4365	46406	0.4304450108634827	0.027837529488294988	13	4	[]	2620	1	13
meta	Lachesis_group22__46_contigs__length_104782409	13843	46406	0.3461273139294419	0.1121552264223359	2588	7	[]	2620	1	2588
meta	Lachesis_group22__46_contigs__length_104782409	13898	46406	0.4112633899219992	0.04701915042977854	322	28	[]	2620	1	322
meta	Lachesis_group22__46_contigs__length_104782409	14472	46406	0.4137989582632877	0.044483582088489945	54	15	[]	2620	1	54
meta	Lachesis_group22__46_contigs__length_104782409	6824	46406	0.40720660013310117	0.05107594021867658	1875	183	7	2620	1	1875
meta	Lachesis_group22__46_contigs__length_104782409	4194	46406	0.42254358710140205	0.0357389532503756	55	7	4	2620	1	55
meta	Lachesis_group22__46_contigs__length_104782409	1226	46406	0.3968000449100899	0.061482495441687914	2466	65	10	2620	1	2466
meta	Lachesis_group22__46_contigs__length_104782409	1197	46406	0.40064077561917666	0.057641764732601165	2437	25	10	2620	1	2437
meta	Lachesis_group23__35_contigs__length_97660015	4162	49248	0.20942499238159534	0.05008622343364105	1712	17	[]	2442	1	1712
meta	Lachesis_group23__35_contigs__length_97660015	14176	49248	0.23005766865386318	0.029453547161373158	15	10	[]	2442	1	15
meta	Lachesis_group23__35_contigs__length_97660015	14334	49248	0.2184861268400234	0.04102508897521297	10	9	[]	2442	1	10
meta	Lachesis_group23__35_contigs__length_97660015	4351	49248	0.22763240019994685	0.03187881561528951	16	6	[]	2442	1	16
meta	Lachesis_group23__35_contigs__length_97660015	14407	49248	0.23444072888771528	0.025070486927521073	6	5	[]	2442	1	6
meta	Lachesis_group23__35_contigs__length_97660015	13968	49248	0.23680132441302865	0.02270989140220771	4	4	[]	2442	1	4
meta	Lachesis_group23__35_contigs__length_97660015	14076	49248	0.2180709957776136	0.041440220037622745	46	19	[]	2442	1	46
meta	Lachesis_group23__35_contigs__length_97660015	4371	49248	0.23352329676718836	0.02598791904804797	9	6	[]	2442	1	9
meta	Lachesis_group23__35_contigs__length_97660015	4405	49282	0.1297556079076182	0.1297556079076182	2412	1	[]	2442	1	2412
meta	Lachesis_group23__35_contigs__length_97660015	4394	49248	0.23700516528861276	0.022506050526623578	3	4	[]	2442	1	3
meta	Lachesis_group23__35_contigs__length_97660015	13986	49248	0.21810171251643107	0.04140950329880527	49	27	[]	2442	1	49
meta	Lachesis_group23__35_contigs__length_97660015	14234	49248	0.22307985421276938	0.03643136160246696	49	22	[]	2442	1	49
meta	Lachesis_group23__35_contigs__length_97660015	4254	49248	0.21209606238738626	0.04741515342785007	122	32	[]	2442	1	122
meta	Lachesis_group23__35_contigs__length_97660015	15195	49248	0.22253588102576502	0.03697533478947132	10	4	3	2442	1	10
meta	Lachesis_group23__35_contigs__length_97660015	6821	49248	0.24247368468979666	0.017037531125439674	2	2	3	2442	1	2
meta	Lachesis_group23__35_contigs__length_97660015	10672	49248	0.21441901082354728	0.04509220499168906	408	95	4	2442	1	408
meta	Lachesis_group23__35_contigs__length_97660015	8346	49248	0.21459269935165676	0.04491851646357958	369	26	3	2442	1	369
meta	Lachesis_group23__35_contigs__length_97660015	4373	49248	0.2038419464988906	0.05566926931634583	2164	3	3	2442	1	2164
meta	Lachesis_group24__36_contigs__length_98752639	4182	52247	0.6040444116539804	0.04865194225364748	1680	28	[]	2469	1	1680
meta	Lachesis_group24__36_contigs__length_98752639	13907	52247	0.5942921938493919	0.05840416005823608	2426	8	[]	2469	1	2426
meta	Lachesis_group24__36_contigs__length_98752639	13795	52247	0.6252597036241168	0.027436650283511138	9	6	[]	2469	1	9
meta	Lachesis_group24__36_contigs__length_98752639	4265	52247	0.6060030303338217	0.046693323573806136	92	21	[]	2469	1	92
meta	Lachesis_group24__36_contigs__length_98752639	14283	52247	0.6051273805611895	0.04756897334643829	358	15	[]	2469	1	358
meta	Lachesis_group24__36_contigs__length_98752639	4368	52247	0.603520201980857	0.04917615192677082	1971	57	[]	2469	1	1971
meta	Lachesis_group24__36_contigs__length_98752639	9047	52247	0.6147300191122869	0.03796633479534095	41	23	[]	2469	1	41
meta	Lachesis_group24__36_contigs__length_98752639	4367	52247	0.5689037814153217	0.08379257249230632	2436	17	[]	2469	1	2436
meta	Lachesis_group24__36_contigs__length_98752639	6852	52247	0.602575949660505	0.050120404247122885	2146	92	7	2469	1	2146
meta	Lachesis_group24__36_contigs__length_98752639	6912	52247	0.603520201980857	0.04917615192677082	1971	27	5	2469	1	1971
meta	Lachesis_group24__36_contigs__length_98752639	8368	52247	0.6073312930975785	0.045365060810049415	54	32	4	2469	1	54
meta	Lachesis_group24__36_contigs__length_98752639	1307	52247	0.6048886845439393	0.047807669363688535	54	15	6	2469	1	54
meta	Lachesis_group24__36_contigs__length_98752639	11199	52247	0.6011325527273323	0.0515638011802955	2210	22	3	2469	1	2210
meta	Lachesis_group24__36_contigs__length_98752639	1294	52247	0.6121003032051091	0.04059605070251872	119	26	8	2469	1	119
meta	Lachesis_group24__36_contigs__length_98752639	10178	52247	0.6080197260208698	0.04467662788675797	46	14	13	2469	1	46
meta	Lachesis_group24__36_contigs__length_98752639	4298	52247	0.620309210955637	0.03238714295199092	17	5	4	2469	1	17
meta	Lachesis_group24__36_contigs__length_98752639	9043	52247	0.6040095964232803	0.04868675748434745	1685	34	10	2469	1	1685
meta	Lachesis_group24__36_contigs__length_98752639	10181	52247	0.615074571256642	0.03762178265098581	19	14	7	2469	1	19
meta	Lachesis_group25__42_contigs__length_94613958	14343	55192	0.2332285948696166	0.047293940066659865	56	38	[]	2366	1	56
meta	Lachesis_group25__42_contigs__length_94613958	14039	55192	0.24175723756845569	0.038765297367820806	55	11	[]	2366	1	55
meta	Lachesis_group25__42_contigs__length_94613958	14173	55192	0.25125334561672075	0.029269189319555744	5	5	[]	2366	1	5
meta	Lachesis_group25__42_contigs__length_94613958	4324	55192	0.24199585378409139	0.03852668115218509	17	8	[]	2366	1	17
meta	Lachesis_group25__42_contigs__length_94613958	4211	55192	0.22976896109799788	0.05075357383827862	1991	5	[]	2366	1	1991
meta	Lachesis_group25__42_contigs__length_94613958	13910	55228	0.14026126746813833	0.14026126746813833	2323	35	[]	2366	1	2323
meta	Lachesis_group25__42_contigs__length_94613958	14201	55192	0.25048289943961677	0.030039635496659712	6	5	[]	2366	1	6
meta	Lachesis_group25__42_contigs__length_94613958	13827	55228	0.14026126746813833	0.14026126746813833	2323	1	[]	2366	1	2323
meta	Lachesis_group25__42_contigs__length_94613958	4270	55192	0.2531712158860937	0.02735131905018278	7	5	[]	2366	1	7
meta	Lachesis_group25__42_contigs__length_94613958	14443	55192	0.23607853690710115	0.04444399802917535	61	3	[]	2366	1	61
meta	Lachesis_group25__42_contigs__length_94613958	13974	55192	0.23025823014237873	0.05026430479389778	85	14	[]	2366	1	85
meta	Lachesis_group25__42_contigs__length_94613958	4339	55192	0.2505846757530687	0.029937859183207786	19	8	[]	2366	1	19
meta	Lachesis_group25__42_contigs__length_94613958	4178	55192	0.2485340733023417	0.03198846163393479	37	24	[]	2366	1	37
meta	Lachesis_group25__42_contigs__length_94613958	1223	55192	0.23461924307350712	0.04590329186276936	1354	36	6	2366	1	1354
meta	Lachesis_group25__42_contigs__length_94613958	12175	55192	0.2468956478458133	0.03362688709046319	6	4	3	2366	1	6
meta	Lachesis_group25__42_contigs__length_94613958	6930	55192	0.24375831563917894	0.03676421929709754	80	11	5	2366	1	80
meta	Lachesis_group25__42_contigs__length_94613958	1212	55192	0.22437381809728754	0.05614871683898897	2138	65	6	2366	1	2138
meta	Lachesis_group25__42_contigs__length_94613958	8328	55192	0.23837198345110602	0.04215055148517047	66	9	5	2366	1	66
meta	Lachesis_group25__42_contigs__length_94613958	6927	55192	0.23618965959110072	0.04433287534517577	862	22	3	2366	1	862
meta	Lachesis_group25__42_contigs__length_94613958	4424	55192	0.2566267439074542	0.02389579102882229	8	5	5	2366	1	8
meta	Lachesis_group25__42_contigs__length_94613958	6899	55192	0.2263464411778284	0.054176093758448104	2130	8	4	2366	1	2130
meta	Lachesis_group25__42_contigs__length_94613958	1293	55192	0.2472283932469304	0.033294141689346086	22	10	7	2366	1	22
meta	Lachesis_group25__42_contigs__length_94613958	4219	55192	0.24439967125146553	0.03612286368481096	65	29	3	2366	1	65
meta	Lachesis_group25__42_contigs__length_94613958	1273	55192	0.2546069919286813	0.02591554300759517	7	6	3	2366	1	7
meta	Lachesis_group26__46_contigs__length_93059273	14229	56316	0.8659276570462316	0.0754393019148758	2278	14	[]	2327	1	2278
meta	Lachesis_group26__46_contigs__length_93059273	14557	56316	0.9055487544016219	0.03581820455948552	41	4	[]	2327	1	41
meta	Lachesis_group26__46_contigs__length_93059273	13923	56316	0.9118403984617165	0.029526560499390984	7	3	[]	2327	1	7
meta	Lachesis_group26__46_contigs__length_93059273	4207	56316	0.8431170839840734	0.09824987497703433	2290	12	[]	2327	1	2290
meta	Lachesis_group26__46_contigs__length_93059273	14257	56316	0.8952437102608606	0.046123248700246866	1773	17	[]	2327	1	1773
meta	Lachesis_group26__46_contigs__length_93059273	14465	56316	0.916823338984309	0.024543619976798426	12	8	[]	2327	1	12
meta	Lachesis_group26__46_contigs__length_93059273	13197	56316	0.9133613697176286	0.028005589243478856	30	22	6	2327	1	30
meta	Lachesis_group27__44_contigs__length_93323795	14559	59742	0.4882104423865326	0.026407009011708706	12	6	[]	2334	1	12
meta	Lachesis_group27__44_contigs__length_93323795	14152	59742	0.4885466859553538	0.026070765442887556	6	6	[]	2334	1	6
meta	Lachesis_group27__44_contigs__length_93323795	14452	59742	0.4477514885002919	0.06686596289794977	2259	53	[]	2334	1	2259
meta	Lachesis_group27__44_contigs__length_93323795	1274	59742	0.47044725479669625	0.0441701966015451	1068	25	[]	2334	1	1068
meta	Lachesis_group27__44_contigs__length_93323795	13996	59742	0.4724482401851444	0.04216921121309688	22	22	[]	2334	1	22
meta	Lachesis_group27__44_contigs__length_93323795	14103	59742	0.4829518242085632	0.03166562718967812	12	10	[]	2334	1	12
meta	Lachesis_group27__44_contigs__length_93323795	4377	59742	0.4844317410599555	0.03018571033828582	24	4	[]	2334	1	24
meta	Lachesis_group27__44_contigs__length_93323795	15171	59742	0.47534319565716987	0.039274255741071434	26	20	4	2334	1	26
meta	Lachesis_group27__44_contigs__length_93323795	1243	59742	0.48061245592838686	0.0340049954698545	10	7	3	2334	1	10
meta	Lachesis_group27__44_contigs__length_93323795	14738	59742	0.45908211687504497	0.05553533452319648	2145	4	3	2334	1	2145
meta	Lachesis_group27__44_contigs__length_93323795	10182	59742	0.45044113389694884	0.06417631750129277	2252	12	4	2334	1	2252
meta	Lachesis_group27__44_contigs__length_93323795	6868	59742	0.47794529148650094	0.03667215991174038	21	20	5	2334	1	21
meta	Lachesis_group27__44_contigs__length_93323795	9044	59742	0.4905201751278365	0.02409727627040479	10	7	3	2334	1	10
meta	Lachesis_group28__49_contigs__length_91470296	4232	62570	0.4728764874171895	0.044864958717508244	246	20	[]	2287	1	246
meta	Lachesis_group28__49_contigs__length_91470296	4418	62570	0.46116796391353687	0.05657348222116095	2035	17	[]	2287	1	2035
meta	Lachesis_group28__49_contigs__length_91470296	14384	62570	0.4912815911061267	0.026459855028571087	4	2	[]	2287	1	4
meta	Lachesis_group28__49_contigs__length_91470296	14556	62570	0.4618100690124656	0.05593137712223225	1990	8	[]	2287	1	1990
meta	Lachesis_group28__49_contigs__length_91470296	4370	62570	0.47167882381540416	0.04606262231929359	55	13	[]	2287	1	55
meta	Lachesis_group28__49_contigs__length_91470296	1290	62570	0.47453560000350475	0.043205846131193	43	33	[]	2287	1	43
meta	Lachesis_group28__49_contigs__length_91470296	4313	62570	0.4873284572094052	0.03041298892529256	18	9	[]	2287	1	18
meta	Lachesis_group28__49_contigs__length_91470296	4268	62570	0.4637936546493856	0.05394779148531224	1928	33	[]	2287	1	1928
meta	Lachesis_group28__49_contigs__length_91470296	4299	62322	0.2588707230673492	0.2588707230673492	2246	1	[]	2287	1	2246
meta	Lachesis_group28__49_contigs__length_91470296	14225	62570	0.48620309692127994	0.031538349213417805	29	14	[]	2287	1	29
meta	Lachesis_group28__49_contigs__length_91470296	4188	62570	0.48517129018162564	0.03257015595307214	4	3	[]	2287	1	4
meta	Lachesis_group28__49_contigs__length_91470296	14160	62570	0.4811046431031635	0.03663680303153425	30	5	[]	2287	1	30
meta	Lachesis_group28__49_contigs__length_91470296	13792	62570	0.48841399956285336	0.029327446571844384	7	4	[]	2287	1	7
meta	Lachesis_group28__49_contigs__length_91470296	13841	62570	0.47393951566097636	0.043801930473721384	32	24	[]	2287	1	32
meta	Lachesis_group28__49_contigs__length_91470296	4136	62570	0.4980359883416404	0.0197054577930573	3	3	3	2287	1	3
meta	Lachesis_group28__49_contigs__length_91470296	1280	62570	0.47965581287344783	0.038085633261249925	23	7	3	2287	1	23
meta	Lachesis_group28__49_contigs__length_91470296	1231	62570	0.4781380786128333	0.03960336752186443	55	53	5	2287	1	55
meta	Lachesis_group28__49_contigs__length_91470296	6880	62570	0.4896123104485235	0.02812913568617426	5	3	3	2287	1	5
meta	Lachesis_group28__49_contigs__length_91470296	1195	62570	0.46949176134988846	0.04824968478480933	220	59	4	2287	1	220
meta	Lachesis_group28__49_contigs__length_91470296	1264	62570	0.48501779799768774	0.03272364813700999	25	9	4	2287	1	25
meta	Lachesis_group28__49_contigs__length_91470296	4238	62570	0.4834302152728161	0.03431123086188165	6	5	3	2287	1	6
meta	Lachesis_group29__46_contigs__length_89259793	13826	65144	0.6685640638270058	0.05108768230000839	1749	7	[]	2232	1	1749
meta	Lachesis_group29__46_contigs__length_89259793	13855	65144	0.6909940086381943	0.0286577374888199	12	6	[]	2232	1	12
meta	Lachesis_group29__46_contigs__length_89259793	4404	65144	0.6781144542786911	0.041537291848323096	267	10	[]	2232	1	267
meta	Lachesis_group29__46_contigs__length_89259793	14275	65144	0.6872376716246902	0.032414074502324024	63	4	[]	2232	1	63
meta	Lachesis_group29__46_contigs__length_89259793	14006	65144	0.6894773174104207	0.030174428716593437	21	11	[]	2232	1	21
meta	Lachesis_group29__46_contigs__length_89259793	13943	65144	0.6798315454825801	0.03982020064443421	28	9	[]	2232	1	28
meta	Lachesis_group29__46_contigs__length_89259793	4412	65144	0.6836381747727851	0.036013571354229126	27	7	[]	2232	1	27
meta	Lachesis_group29__46_contigs__length_89259793	14321	65144	0.6872326465311961	0.03241909959581812	36	19	[]	2232	1	36
meta	Lachesis_group29__46_contigs__length_89259793	14318	65144	0.698254926661523	0.021396819465491188	3	2	[]	2232	1	3
meta	Lachesis_group29__46_contigs__length_89259793	6892	65144	0.6821805287058957	0.037471217421118405	8	7	5	2232	1	8
meta	Lachesis_group29__46_contigs__length_89259793	10169	65144	0.6517724751123726	0.06787927101464183	2174	18	3	2232	1	2174
meta	Lachesis_group29__46_contigs__length_89259793	4435	65144	0.6824376443939312	0.03721410173308305	36	12	7	2232	1	36
meta	Lachesis_group29__46_contigs__length_89259793	8362	65144	0.6674012220020067	0.05225052412500753	1915	27	3	2232	1	1915
meta	Lachesis_group29__46_contigs__length_89259793	13175	65144	0.6958177936511527	0.02383395247586145	2	2	3	2232	1	2
meta	Lachesis_group29__46_contigs__length_89259793	6816	65144	0.6767769167902724	0.04287482933674183	53	38	3	2232	1	53
meta	Lachesis_group29__46_contigs__length_89259793	8375	65144	0.673787449042314	0.045864297084700203	1048	102	5	2232	1	1048
meta	Lachesis_group29__46_contigs__length_89259793	15230	65144	0.6829928147392632	0.036658931387750976	14	2	3	2232	1	14
meta	Lachesis_group2__55_contigs__length_182973478	4356	65249	0.3529798586483489	0.04746078623728324	140	29	[]	4575	1	140
meta	Lachesis_group2__55_contigs__length_182973478	6906	65249	0.3539776885462217	0.04646295633941042	523	65	[]	4575	1	523
meta	Lachesis_group2__55_contigs__length_182973478	4172	65249	0.36579805731159576	0.034642587574036404	29	5	[]	4575	1	29
meta	Lachesis_group2__55_contigs__length_182973478	13862	65249	0.34290494052893655	0.05753570435669568	4042	20	[]	4575	1	4042
meta	Lachesis_group2__55_contigs__length_182973478	14351	65249	0.34193335768599686	0.05850728719963541	4053	10	[]	4575	1	4053
meta	Lachesis_group2__55_contigs__length_182973478	4360	65249	0.3653645290126655	0.035076115872966655	28	2	[]	4575	1	28
meta	Lachesis_group2__55_contigs__length_182973478	4366	65249	0.37173189168439086	0.028708753201241295	11	3	[]	4575	1	11
meta	Lachesis_group2__55_contigs__length_182973478	14539	65249	0.3581008961771215	0.04233974870851064	11	7	[]	4575	1	11
meta	Lachesis_group2__55_contigs__length_182973478	14092	65249	0.37153296381991463	0.028907681065717505	10	10	[]	4575	1	10
meta	Lachesis_group2__55_contigs__length_182973478	4296	65249	0.3477343450491903	0.05270629983644183	3172	48	[]	4575	1	3172
meta	Lachesis_group2__55_contigs__length_182973478	13933	65249	0.3782471085489097	0.022193536336722466	6	3	[]	4575	1	6
meta	Lachesis_group2__55_contigs__length_182973478	14129	65249	0.3571735050841383	0.04326713980149383	60	8	[]	4575	1	60
meta	Lachesis_group2__55_contigs__length_182973478	14484	65249	0.2970614904650878	0.10337915442054454	4540	5	[]	4575	1	4540
meta	Lachesis_group2__55_contigs__length_182973478	14127	65249	0.3731319888554685	0.027308656030163612	16	8	[]	4575	1	16
meta	Lachesis_group2__55_contigs__length_182973478	4450	65249	0.3549396470487496	0.04550099783688256	140	14	[]	4575	1	140
meta	Lachesis_group2__55_contigs__length_182973478	4303	65249	0.3614365504698249	0.03900409441580721	82	14	[]	4575	1	82
meta	Lachesis_group2__55_contigs__length_182973478	4429	65249	0.3553118635901762	0.045128781295455965	372	13	[]	4575	1	372
meta	Lachesis_group2__55_contigs__length_182973478	4399	65249	0.33269738425617257	0.06774326062945957	4425	74	[]	4575	1	4425
meta	Lachesis_group2__55_contigs__length_182973478	14512	65249	0.3693579552333579	0.031082689652274217	27	8	[]	4575	1	27
meta	Lachesis_group2__55_contigs__length_182973478	13964	65249	0.35353357950890973	0.04690706537672237	420	85	5	4575	1	420
meta	Lachesis_group2__55_contigs__length_182973478	4149	65249	0.32258914692938967	0.0778514979562425	4537	13	5	4575	1	4537
meta	Lachesis_group2__55_contigs__length_182973478	9038	65249	0.3508076215336917	0.04963302335194043	463	52	7	4575	1	463
meta	Lachesis_group2__55_contigs__length_182973478	6820	65249	0.35242421788975975	0.048016426995872455	760	39	10	4575	1	760
meta	Lachesis_group2__55_contigs__length_182973478	4337	65249	0.364336386763871	0.03610425812176118	35	23	9	4575	1	35
meta	Lachesis_group2__55_contigs__length_182973478	6838	65249	0.37048299182569155	0.02995765305994059	20	17	4	4575	1	20
meta	Lachesis_group2__55_contigs__length_182973478	13165	65249	0.3620120338316729	0.03842861105395923	19	11	3	4575	1	19
meta	Lachesis_group30__51_contigs__length_87052432	4230	70287	0.12167616864669109	0.07243462630107081	2108	24	[]	2177	1	2108
meta	Lachesis_group30__51_contigs__length_87052432	4271	70287	0.16995325298731934	0.024157541960442508	9	8	[]	2177	1	9
meta	Lachesis_group30__51_contigs__length_87052432	4212	70287	0.1579330909339107	0.03617770401385114	26	6	[]	2177	1	26
meta	Lachesis_group30__51_contigs__length_87052432	13829	70287	0.15834236605167856	0.03576842889608327	14	8	[]	2177	1	14
meta	Lachesis_group30__51_contigs__length_87052432	9094	70287	0.1436514127320702	0.05045938221569169	1752	31	[]	2177	1	1752
meta	Lachesis_group30__51_contigs__length_87052432	6831	70287	0.16408563386277264	0.030025161084989222	20	10	[]	2177	1	20
meta	Lachesis_group30__51_contigs__length_87052432	4468	70287	0.14839848191569338	0.04571231303206846	22	11	[]	2177	1	22
meta	Lachesis_group30__51_contigs__length_87052432	13837	70287	0.14629798249103243	0.04781281245672945	1417	4	[]	2177	1	1417
meta	Lachesis_group30__51_contigs__length_87052432	14564	70287	0.16529888571795315	0.028811909229808686	16	14	[]	2177	1	16
meta	Lachesis_group30__51_contigs__length_87052432	4222	70287	0.15560437280817097	0.038506422139590865	161	9	[]	2177	1	161
meta	Lachesis_group30__51_contigs__length_87052432	13787	70287	0.17268836624760284	0.021422428700159007	10	6	[]	2177	1	10
meta	Lachesis_group30__51_contigs__length_87052432	4195	70287	0.14723587111951306	0.04687492382824885	1305	13	[]	2177	1	1305
meta	Lachesis_group30__51_contigs__length_87052432	13939	70287	0.16576359113862332	0.028347203809138504	9	7	[]	2177	1	9
meta	Lachesis_group30__51_contigs__length_87052432	14016	70287	0.15326180256168723	0.04084899238607461	12	2	[]	2177	1	12
meta	Lachesis_group30__51_contigs__length_87052432	14215	70287	0.14510941369682714	0.0490013812509347	25	9	[]	2177	1	25
meta	Lachesis_group30__51_contigs__length_87052432	4372	70287	0.16682333492730173	0.027287460020460137	8	8	7	2177	1	8
meta	Lachesis_group30__51_contigs__length_87052432	14190	70287	0.1464178596164252	0.04769293533133666	16	10	5	2177	1	16
meta	Lachesis_group30__51_contigs__length_87052432	1271	70287	0.1664905278807707	0.027620267066991135	16	11	4	2177	1	16
meta	Lachesis_group30__51_contigs__length_87052432	1292	70287	0.15331288908795046	0.040797905859811384	29	13	6	2177	1	29
meta	Lachesis_group30__51_contigs__length_87052432	6827	70287	0.1660235661264452	0.02808722882131664	10	10	4	2177	1	10
meta	Lachesis_group30__51_contigs__length_87052432	6919	70287	0.13631038047254973	0.0578004144752122	1940	16	7	2177	1	1940
meta	Lachesis_group30__51_contigs__length_87052432	6822	70287	0.11285846909993445	0.08125232584782739	2129	81	4	2177	1	2129
meta	Lachesis_group30__51_contigs__length_87052432	1204	70287	0.16014176288378104	0.03396903206398081	104	7	5	2177	1	104
meta	Lachesis_group30__51_contigs__length_87052432	4378	70511	0.09705539747388109	0.09705539747388109	2142	1	4	2177	1	2142
meta	Lachesis_group30__51_contigs__length_87052432	4173	70287	0.14768886285023605	0.04642193209752579	75	20	6	2177	1	75
meta	Lachesis_group30__51_contigs__length_87052432	10200	70287	0.15730136018902485	0.03680943475873698	17	11	3	2177	1	17
meta	Lachesis_group31__46_contigs__length_81539927	14133	72047	0.5675900367521713	0.03373721275293632	12	5	[]	2039	1	12
meta	Lachesis_group31__46_contigs__length_81539927	14143	72671	0.30066362475255437	0.30066362475255437	2006	1	[]	2039	1	2006
meta	Lachesis_group31__46_contigs__length_81539927	4463	72047	0.5525333659940639	0.04879388351104391	1254	37	[]	2039	1	1254
meta	Lachesis_group31__46_contigs__length_81539927	4329	72047	0.5654818078803056	0.03584544162480218	42	7	[]	2039	1	42
meta	Lachesis_group31__46_contigs__length_81539927	14393	72047	0.5469732908736882	0.0543539586314195	70	17	[]	2039	1	70
meta	Lachesis_group31__46_contigs__length_81539927	14086	72671	0.30066362475255437	0.30066362475255437	2006	39	[]	2039	1	2006
meta	Lachesis_group31__46_contigs__length_81539927	1305	72047	0.5601254558097404	0.04120179369536745	75	55	[]	2039	1	75
meta	Lachesis_group31__46_contigs__length_81539927	4354	72047	0.5562577898059031	0.04506945969920463	142	15	[]	2039	1	142
meta	Lachesis_group31__46_contigs__length_81539927	14168	72047	0.5730747225425912	0.028252526962516584	16	9	[]	2039	1	16
meta	Lachesis_group31__46_contigs__length_81539927	13884	72047	0.5741404921963422	0.02718675730876549	8	5	[]	2039	1	8
meta	Lachesis_group31__46_contigs__length_81539927	1302	72047	0.5525333659940639	0.04879388351104391	1254	79	9	2039	1	1254
meta	Lachesis_group31__46_contigs__length_81539927	4193	72047	0.5492402103959712	0.05208703910913663	1546	82	10	2039	1	1546
meta	Lachesis_group31__46_contigs__length_81539927	1217	72047	0.5584231609943164	0.04290408851079137	41	16	3	2039	1	41
meta	Lachesis_group31__46_contigs__length_81539927	4472	72047	0.5351948532413765	0.06613239626373132	1934	10	10	2039	1	1934
meta	Lachesis_group31__46_contigs__length_81539927	10191	72047	0.5464833303630334	0.054843919142074454	1747	78	5	2039	1	1747
meta	Lachesis_group31__46_contigs__length_81539927	1207	72047	0.5591245879351721	0.04220266156993563	28	22	6	2039	1	28
meta	Lachesis_group31__46_contigs__length_81539927	4167	72047	0.5258799678404872	0.07544728166462057	1977	76	8	2039	1	1977
meta	Lachesis_group32__40_contigs__length_78634074	14222	75350	0.5948622097382477	0.04881944333922649	24	11	[]	1966	1	24
meta	Lachesis_group32__40_contigs__length_78634074	4290	75350	0.6024872900811511	0.04119436299632308	31	19	[]	1966	1	31
meta	Lachesis_group32__40_contigs__length_78634074	4147	75350	0.6134641346887544	0.030217518388719725	10	7	[]	1966	1	10
meta	Lachesis_group32__40_contigs__length_78634074	4141	75350	0.5806034228255335	0.0630782302519408	1878	25	[]	1966	1	1878
meta	Lachesis_group32__40_contigs__length_78634074	14013	75350	0.610565142370807	0.03311651070666726	9	8	[]	1966	1	9
meta	Lachesis_group32__40_contigs__length_78634074	4185	75350	0.6023103122794822	0.04137134079799194	24	20	[]	1966	1	24
meta	Lachesis_group32__40_contigs__length_78634074	14496	75350	0.5967573928689371	0.04692426020853705	74	12	[]	1966	1	74
meta	Lachesis_group32__40_contigs__length_78634074	8330	75350	0.591376507788949	0.05230514528852513	1386	97	6	1966	1	1386
meta	Lachesis_group32__40_contigs__length_78634074	14047	75350	0.5985701193214157	0.045111533756058475	285	22	4	1966	1	285
meta	Lachesis_group32__40_contigs__length_78634074	4502	75350	0.6174033433887507	0.026278309688723436	15	8	3	1966	1	15
meta	Lachesis_group32__40_contigs__length_78634074	8363	75350	0.6104111920433724	0.03327046103410182	11	11	5	1966	1	11
meta	Lachesis_group32__40_contigs__length_78634074	1289	75350	0.603920050920296	0.03976160215717825	53	18	4	1966	1	53
meta	Lachesis_group32__40_contigs__length_78634074	8317	75350	0.5893968622536014	0.05428479082387268	1497	107	8	1966	1	1497
meta	Lachesis_group32__40_contigs__length_78634074	1268	75350	0.5922719845433684	0.05140966853410575	1085	37	6	1966	1	1085
meta	Lachesis_group33__48_contigs__length_77384337	4381	76461	0.5899593039078448	0.0430458373599127	175	85	[]	1935	1	175
meta	Lachesis_group33__48_contigs__length_77384337	14337	76461	0.5786501013216949	0.05435503994606247	1577	14	[]	1935	1	1577
meta	Lachesis_group33__48_contigs__length_77384337	14487	76461	0.6106009451948367	0.02240419607292082	3	3	[]	1935	1	3
meta	Lachesis_group33__48_contigs__length_77384337	14280	76461	0.5790947627435821	0.053910378524175365	41	26	[]	1935	1	41
meta	Lachesis_group33__48_contigs__length_77384337	4478	76461	0.5487425601903019	0.08426258107745553	1890	23	6	1935	1	1890
meta	Lachesis_group33__48_contigs__length_77384337	12222	77277	0.31650257063387927	0.31650257063387927	1894	31	8	1935	1	1894
meta	Lachesis_group33__48_contigs__length_77384337	13177	76461	0.5622074180092611	0.07079772325849637	1883	51	3	1935	1	1883
meta	Lachesis_group34__47_contigs__length_76047342	14416	79653	0.7172636967526893	0.032844506355609045	14	7	[]	1902	1	14
meta	Lachesis_group34__47_contigs__length_76047342	14463	79653	0.7249946723698892	0.025113530738409124	3	3	[]	1902	1	3
meta	Lachesis_group34__47_contigs__length_76047342	14072	79653	0.6978200527325975	0.05228815037570082	23	6	[]	1902	1	23
meta	Lachesis_group34__47_contigs__length_76047342	14495	79653	0.721595437515451	0.028512765592847402	14	2	[]	1902	1	14
meta	Lachesis_group34__47_contigs__length_76047342	4160	79653	0.7203228015650452	0.029785401543253143	32	9	[]	1902	1	32
meta	Lachesis_group34__47_contigs__length_76047342	13992	79653	0.6966764299257481	0.05343177318255031	40	17	[]	1902	1	40
meta	Lachesis_group34__47_contigs__length_76047342	13998	79653	0.70421534750613	0.04589285560216842	223	39	[]	1902	1	223
meta	Lachesis_group34__47_contigs__length_76047342	13976	79653	0.7044211061770002	0.04568709693129823	309	7	[]	1902	1	309
meta	Lachesis_group34__47_contigs__length_76047342	14566	79653	0.7253957046089649	0.02471249849933353	10	3	[]	1902	1	10
meta	Lachesis_group34__47_contigs__length_76047342	4154	79653	0.7246643063409048	0.02544389676739363	8	4	[]	1902	1	8
meta	Lachesis_group34__47_contigs__length_76047342	6888	79653	0.7011777398532659	0.048930463255032516	168	11	[]	1902	1	168
meta	Lachesis_group34__47_contigs__length_76047342	14361	79653	0.7080140988758877	0.042094104232410647	96	22	[]	1902	1	96
meta	Lachesis_group34__47_contigs__length_76047342	1227	79653	0.7130653050616149	0.03704289804668354	80	29	9	1902	1	80
meta	Lachesis_group34__47_contigs__length_76047342	1262	79653	0.691658422224837	0.05844978088346147	1741	20	4	1902	1	1741
meta	Lachesis_group34__47_contigs__length_76047342	4488	79653	0.7143974859149664	0.035710717193331895	32	12	6	1902	1	32
meta	Lachesis_group34__47_contigs__length_76047342	1304	79653	0.7056208372532771	0.044487365855021374	59	20	7	1902	1	59
meta	Lachesis_group34__47_contigs__length_76047342	6840	79653	0.698630828186737	0.051477374921561354	84	76	6	1902	1	84
meta	Lachesis_group34__47_contigs__length_76047342	1237	79653	0.7036173944341548	0.04649080867414351	232	7	5	1902	1	232
meta	Lachesis_group34__47_contigs__length_76047342	14306	79653	0.6977153810087545	0.05239282209954389	1383	12	5	1902	1	1383
meta	Lachesis_group35__42_contigs__length_70637049	14584	81235	0.41902293823032183	0.015312116517611888	2	2	[]	1766	1	2
meta	Lachesis_group35__42_contigs__length_70637049	6849	81235	0.38155655155895096	0.05277850318898274	87	38	[]	1766	1	87
meta	Lachesis_group35__42_contigs__length_70637049	14192	81235	0.39861952409229373	0.035715530655639996	13	10	[]	1766	1	13
meta	Lachesis_group35__42_contigs__length_70637049	13810	81235	0.3946407516901863	0.03969430305774743	47	7	[]	1766	1	47
meta	Lachesis_group35__42_contigs__length_70637049	13866	81235	0.39480943803764135	0.03952561671029241	19	12	[]	1766	1	19
meta	Lachesis_group35__42_contigs__length_70637049	14147	81235	0.3877640282042183	0.046571026543715435	472	5	[]	1766	1	472
meta	Lachesis_group35__42_contigs__length_70637049	14359	81235	0.3882852316022795	0.04604982314565421	97	15	[]	1766	1	97
meta	Lachesis_group35__42_contigs__length_70637049	14034	81235	0.3793826808713251	0.05495237387660864	1547	13	[]	1766	1	1547
meta	Lachesis_group35__42_contigs__length_70637049	13891	81235	0.35145638001109425	0.08287867473683971	1725	4	[]	1766	1	1725
meta	Lachesis_group35__42_contigs__length_70637049	13954	81235	0.3844331618693331	0.049901892878600716	1219	6	[]	1766	1	1219
meta	Lachesis_group35__42_contigs__length_70637049	13839	81235	0.38005954487836646	0.054275509869567265	35	3	[]	1766	1	35
meta	Lachesis_group35__42_contigs__length_70637049	4456	81235	0.40675459371736	0.027580461030573714	12	3	[]	1766	1	12
meta	Lachesis_group35__42_contigs__length_70637049	14568	81235	0.414431169019804	0.01990388572812972	2	2	[]	1766	1	2
meta	Lachesis_group35__42_contigs__length_70637049	4217	81235	0.3945900902362125	0.03974496451172119	57	29	[]	1766	1	57
meta	Lachesis_group35__42_contigs__length_70637049	14279	81235	0.38006445807962735	0.05427059666830637	1431	18	[]	1766	1	1431
meta	Lachesis_group35__42_contigs__length_70637049	4486	81235	0.4096171686334188	0.024717886114514902	7	6	[]	1766	1	7
meta	Lachesis_group35__42_contigs__length_70637049	14005	81235	0.39149844164359693	0.0428366131043368	24	3	3	1766	1	24
meta	Lachesis_group35__42_contigs__length_70637049	4243	81235	0.3835067154683624	0.050828339279571345	1226	25	6	1766	1	1226
meta	Lachesis_group35__42_contigs__length_70637049	4389	81235	0.3590333509414627	0.0753017038064711	1723	30	6	1766	1	1723
meta	Lachesis_group35__42_contigs__length_70637049	1257	81235	0.3835067154683624	0.050828339279571345	1226	16	3	1766	1	1226
meta	Lachesis_group35__42_contigs__length_70637049	4198	81235	0.4186485681322245	0.01568648661570922	3	2	3	1766	1	3
meta	Lachesis_group35__42_contigs__length_70637049	14123	81235	0.4129228853470115	0.02141216940092219	5	3	3	1766	1	5
meta	Lachesis_group36__35_contigs__length_73496112	14064	81777	0.17951232609720075	0.03564767548637689	26	13	[]	1838	1	26
meta	Lachesis_group36__35_contigs__length_73496112	14237	81777	0.16988221238573523	0.04527778919784239	11	6	[]	1838	1	11
meta	Lachesis_group36__35_contigs__length_73496112	4487	81777	0.18710369796903353	0.028056303614544094	10	9	6	1838	1	10
meta	Lachesis_group37__50_contigs__length_69233352	4497	83926	0.25535438147691114	0.01944601038844767	5	3	[]	1731	1	5
meta	Lachesis_group37__50_contigs__length_69233352	14515	83926	0.24836586825063228	0.026434523614726545	20	8	[]	1731	1	20
meta	Lachesis_group37__50_contigs__length_69233352	4210	83926	0.20889441201808934	0.06590597984726951	1692	6	8	1731	1	1692
meta	Lachesis_group37__50_contigs__length_69233352	15228	83926	0.22227159794432705	0.052528793921031804	1371	11	3	1731	1	1371
meta	Lachesis_group37__50_contigs__length_69233352	10179	83926	0.22262759849539393	0.052172793369964894	22	9	4	1731	1	22
meta	Lachesis_group37__50_contigs__length_69233352	6865	84186	0.1374001959326797	0.1374001959326797	1705	1	3	1731	1	1705
meta	Lachesis_group37__50_contigs__length_69233352	6897	83926	0.23554738290633057	0.03925300895902826	96	11	3	1731	1	96
meta	Lachesis_group38__38_contigs__length_61810156	13803	86005	1.2027680739965256	0.03017873051359371	28	19	[]	1546	1	28
meta	Lachesis_group38__38_contigs__length_61810156	4331	86005	1.1728287133412745	0.060118091168844846	1460	73	[]	1546	1	1460
meta	Lachesis_group38__38_contigs__length_61810156	4386	86005	1.1824295737394275	0.05051723077069188	1320	70	[]	1546	1	1320
meta	Lachesis_group38__38_contigs__length_61810156	14511	86005	1.1906168450156576	0.042329959494461764	118	6	[]	1546	1	118
meta	Lachesis_group38__38_contigs__length_61810156	13879	86005	1.2000824585395247	0.03286434597059456	24	12	[]	1546	1	24
meta	Lachesis_group38__38_contigs__length_61810156	6863	86005	1.199044500102684	0.033902304407435184	46	17	5	1546	1	46
meta	Lachesis_group38__38_contigs__length_61810156	11200	86005	1.205903681708759	0.027043122801360314	14	10	5	1546	1	14
meta	Lachesis_group38__38_contigs__length_61810156	13182	86005	1.1903891471831844	0.042557657326934825	49	31	4	1546	1	49
meta	Lachesis_group39__38_contigs__length_50967332	13916	86679	0.08842622714823119	0.08842622714823119	1233	1	[]	1275	1	1233
meta	Lachesis_group39__38_contigs__length_50967332	14067	87049	0.13157354982861175	0.04527890446785063	578	4	[]	1275	1	578
meta	Lachesis_group39__38_contigs__length_50967332	13930	87049	0.13938042248420623	0.03747203181225613	43	19	[]	1275	1	43
meta	Lachesis_group39__38_contigs__length_50967332	14216	87049	0.13531567314445803	0.04153678115200435	74	5	4	1275	1	74
meta	Lachesis_group39__38_contigs__length_50967332	4409	87049	0.13588551993819098	0.04096693435827141	117	54	39	1275	1	117
meta	Lachesis_group39__38_contigs__length_50967332	9053	87049	0.12416698643422897	0.052685467862233416	81	17	8	1275	1	81
meta	Lachesis_group39__38_contigs__length_50967332	4288	87049	0.1328811875845229	0.04397126671193949	151	73	5	1275	1	151
meta	Lachesis_group39__38_contigs__length_50967332	4287	87049	0.12637573193983748	0.05047672235662492	1072	8	6	1275	1	1072
meta	Lachesis_group39__38_contigs__length_50967332	4164	87049	0.1198025591427597	0.05704989515370271	1227	46	26	1275	1	1227
meta	Lachesis_group39__38_contigs__length_50967332	6915	87049	0.13757399333968462	0.039278460956777755	31	26	4	1275	1	31
meta	Lachesis_group3__52_contigs__length_175295898	14576	90290	0.48431644003485413	0.04812182907222559	1118	69	[]	4383	1	1118
meta	Lachesis_group3__52_contigs__length_175295898	14146	90290	0.5090155426258276	0.02342272648125205	3	2	[]	4383	1	3
meta	Lachesis_group3__52_contigs__length_175295898	4427	90290	0.48692712848047687	0.045511140626602845	34	8	[]	4383	1	34
meta	Lachesis_group3__52_contigs__length_175295898	13789	90290	0.4931670579601506	0.03927121114692908	195	13	[]	4383	1	195
meta	Lachesis_group3__52_contigs__length_175295898	14018	90290	0.5103319361422884	0.022106332964791288	3	3	[]	4383	1	3
meta	Lachesis_group3__52_contigs__length_175295898	14023	90290	0.4776424214487419	0.05479584765833786	3226	52	[]	4383	1	3226
meta	Lachesis_group3__52_contigs__length_175295898	14113	90290	0.4915546832371992	0.040883585869880466	20	15	[]	4383	1	20
meta	Lachesis_group3__52_contigs__length_175295898	6842	90290	0.47387709376086606	0.05856117534621376	3794	15	[]	4383	1	3794
meta	Lachesis_group3__52_contigs__length_175295898	13833	88222	0.2662191345535408	0.2662191345535408	4350	1	[]	4383	1	4350
meta	Lachesis_group3__52_contigs__length_175295898	4453	90290	0.4920197139507876	0.040418555156292085	31	19	3	4383	1	31
meta	Lachesis_group3__52_contigs__length_175295898	4382	90290	0.4798179287566135	0.05262034035046627	2867	104	3	4383	1	2867
meta	Lachesis_group3__52_contigs__length_175295898	1211	90290	0.48355626888691516	0.04888200022016453	6	4	3	4383	1	6
meta	Lachesis_group3__52_contigs__length_175295898	1225	90290	0.4847069665561089	0.04773130255097083	166	77	8	4383	1	166
meta	Lachesis_group3__52_contigs__length_175295898	8325	90290	0.47324373621942595	0.0591945328876539	3980	70	3	4383	1	3980
meta	Lachesis_group3__52_contigs__length_175295898	4500	90290	0.5070115981260155	0.0254266709810642	6	2	3	4383	1	6
meta	Lachesis_group3__52_contigs__length_175295898	6846	90290	0.5009136800852656	0.03152458902181407	11	3	3	4383	1	11
meta	Lachesis_group40__41_contigs__length_53238745	14264	93462	0.44243842946022593	0.044285920531572764	96	9	[]	1331	1	96
meta	Lachesis_group40__41_contigs__length_53238745	4343	93462	0.45570885812579753	0.031015491866001166	8	8	[]	1331	1	8
meta	Lachesis_group40__41_contigs__length_53238745	14042	93462	0.43914648667748096	0.047577863314317737	40	16	[]	1331	1	40
meta	Lachesis_group40__41_contigs__length_53238745	4352	93462	0.4430446077651767	0.043679742226622034	82	18	[]	1331	1	82
meta	Lachesis_group40__41_contigs__length_53238745	13912	93462	0.4567352977951936	0.02998905219660511	5	4	[]	1331	1	5
meta	Lachesis_group40__41_contigs__length_53238745	13896	93462	0.443536010567038	0.04318833942476069	52	11	[]	1331	1	52
meta	Lachesis_group40__41_contigs__length_53238745	14459	93462	0.452493284135678	0.03423106585612067	8	8	[]	1331	1	8
meta	Lachesis_group40__41_contigs__length_53238745	9075	93462	0.2839204645938407	0.2028038853979582	1303	8	4	1331	1	1303
meta	Lachesis_group40__41_contigs__length_53238745	11195	93462	0.4338874635892023	0.05283688640259638	1122	34	5	1331	1	1122
meta	Lachesis_group40__41_contigs__length_53238745	1303	93462	0.44037989408173583	0.04634445591006284	34	13	4	1331	1	34
meta	Lachesis_group40__41_contigs__length_53238745	11213	93462	0.44684064449563266	0.03988370549616606	33	17	7	1331	1	33
meta	Lachesis_group40__41_contigs__length_53238745	9081	93462	0.44090741759303304	0.04581693239876567	523	5	6	1331	1	523
meta	Lachesis_group40__41_contigs__length_53238745	4157	93462	0.4593370751932513	0.027387274798547422	7	6	6	1331	1	7
meta	Lachesis_group41__39_contigs__length_54644242	14586	94324	0.16332651947664562	0.04174237341792231	54	17	[]	1367	1	54
meta	Lachesis_group41__39_contigs__length_54644242	4131	94324	0.16875009637745333	0.03631879651711458	18	7	[]	1367	1	18
meta	Lachesis_group41__39_contigs__length_54644242	14406	94324	0.17987977298226637	0.02518911991230156	11	2	[]	1367	1	11
meta	Lachesis_group41__39_contigs__length_54644242	14485	94324	0.1693854784314235	0.035683414463144464	12	11	[]	1367	1	12
meta	Lachesis_group41__39_contigs__length_54644242	14102	94324	0.1806934740029943	0.024375418891573655	4	3	[]	1367	1	4
meta	Lachesis_group41__39_contigs__length_54644242	13925	94324	0.16171321549028966	0.04335567740427826	37	6	[]	1367	1	37
meta	Lachesis_group41__39_contigs__length_54644242	13851	94324	0.18184730647938174	0.023221586415186173	5	3	[]	1367	1	5
meta	Lachesis_group41__39_contigs__length_54644242	4241	94324	0.17678103154401265	0.028287861350555284	5	3	[]	1367	1	5
meta	Lachesis_group41__39_contigs__length_54644242	4413	94324	0.18443315534648147	0.020635737548086428	2	2	3	1367	1	2
meta	Lachesis_group41__39_contigs__length_54644242	4169	94324	0.13937568569044062	0.06569320720412734	1297	10	5	1367	1	1297
meta	Lachesis_group41__39_contigs__length_54644242	11219	94324	0.188634735049675	0.016434157844892907	3	3	4	1367	1	3
meta	Lachesis_group41__39_contigs__length_54644242	1285	94324	0.15409881508262774	0.050970077811940184	1248	50	5	1367	1	1248
meta	Lachesis_group42__34_contigs__length_44581599	14536	95463	0.2574485004781685	0.02621465746434322	7	4	[]	1115	1	7
meta	Lachesis_group42__34_contigs__length_44581599	14553	95463	0.2441804415410991	0.039482716401412564	66	13	[]	1115	1	66
meta	Lachesis_group42__34_contigs__length_44581599	13814	95463	0.24700950454458973	0.03665365339792196	18	11	[]	1115	1	18
meta	Lachesis_group42__34_contigs__length_44581599	13971	95463	0.24844159174935435	0.035221566193157326	32	10	[]	1115	1	32
meta	Lachesis_group42__34_contigs__length_44581599	14520	95463	0.25443953492163773	0.02922362302087397	14	8	[]	1115	1	14
meta	Lachesis_group42__34_contigs__length_44581599	12215	95463	0.24196278347314895	0.04170037446936274	39	14	4	1115	1	39
meta	Lachesis_group42__34_contigs__length_44581599	6900	95463	0.26660746164524535	0.01705569629726632	4	3	3	1115	1	4
meta	Lachesis_group42__34_contigs__length_44581599	1238	95463	0.24501415397372275	0.038649003968788925	53	22	11	1115	1	53
meta	Lachesis_group42__34_contigs__length_44581599	11218	95463	0.23458782072378576	0.04907533721872602	1018	36	3	1115	1	1018
meta	Lachesis_group42__34_contigs__length_44581599	9082	95463	0.2441804415410991	0.039482716401412564	66	22	3	1115	1	66
meta	Lachesis_group43__26_contigs__length_23511657	4276	96231	0.07810862001602639	0.0524125221901516	157	16	[]	588	1	157
meta	Lachesis_group43__26_contigs__length_23511657	4292	96231	0.07754324394959583	0.05297789825658213	120	15	[]	588	1	120
meta	Lachesis_group43__26_contigs__length_23511657	14243	96231	0.08754778465649819	0.04297335754967978	23	8	[]	588	1	23
meta	Lachesis_group43__26_contigs__length_23511657	14395	96231	0.11081485884196227	0.019706283364215708	4	3	[]	588	1	4
meta	Lachesis_group43__26_contigs__length_23511657	14004	96231	0.09246685776942895	0.03805428443674903	64	16	[]	588	1	64
meta	Lachesis_group43__26_contigs__length_23511657	4218	96231	0.09309864793406494	0.03742249427211303	21	10	[]	588	1	21
meta	Lachesis_group43__26_contigs__length_23511657	14250	96231	0.09541527132500938	0.035105870881168594	23	8	[]	588	1	23
meta	Lachesis_group43__26_contigs__length_23511657	4221	96231	0.0989049656250261	0.03161617658115187	26	28	[]	588	1	26
meta	Lachesis_group43__26_contigs__length_23511657	1250	96231	0.088214646196019	0.04230649601015897	45	22	6	588	1	45
meta	Lachesis_group43__26_contigs__length_23511657	4278	96231	0.09443256380096257	0.036088578405215406	30	32	11	588	1	30
meta	Lachesis_group43__26_contigs__length_23511657	6853	96231	0.07953547713182761	0.05098566507435036	232	29	6	588	1	232
meta	Lachesis_group44__24_contigs__length_15433969	14389	96810	0.21239566912366276	0.02977407491502628	20	20	3	386	1	20
meta	Lachesis_group45__11_contigs__length_9560946	4334	97225	0.09178857724674067	0.029520561868396508	14	10	5	240	1	14
meta	Lachesis_group45__11_contigs__length_9560946	1209	97225	0.07543389683651389	0.04587524227862329	100	25	7	240	1	100
meta	Lachesis_group4__56_contigs__length_174030884	4498	100136	2.6934182675031426	0.03746418985412793	51	10	[]	4351	1	51
meta	Lachesis_group4__56_contigs__length_174030884	13821	100136	2.6264084411943043	0.10447401616296655	4315	53	[]	4351	1	4315
meta	Lachesis_group4__56_contigs__length_174030884	14125	100136	2.6915720468677433	0.03931041048952704	40	22	[]	4351	1	40
meta	Lachesis_group4__56_contigs__length_174030884	4414	100136	2.69556168291397	0.035320774443300444	25	5	[]	4351	1	25
meta	Lachesis_group4__56_contigs__length_174030884	4281	100136	2.67761573725343	0.053266720103840384	3064	17	[]	4351	1	3064
meta	Lachesis_group4__56_contigs__length_174030884	14340	100136	2.709239258987748	0.021643198369522634	8	3	[]	4351	1	8
meta	Lachesis_group4__56_contigs__length_174030884	14193	100136	2.692046658300219	0.038835799057051264	57	58	[]	4351	1	57
meta	Lachesis_group4__56_contigs__length_174030884	4245	100136	2.696900254244827	0.03398220311244357	24	11	[]	4351	1	24
meta	Lachesis_group4__56_contigs__length_174030884	4312	100136	2.697013261411305	0.03386919594596563	25	13	[]	4351	1	25
meta	Lachesis_group4__56_contigs__length_174030884	14378	100136	2.6928450158864328	0.038037441470837874	29	18	[]	4351	1	29
meta	Lachesis_group4__56_contigs__length_174030884	14532	100136	2.7088257146220447	0.022056742735225787	6	6	[]	4351	1	6
meta	Lachesis_group4__56_contigs__length_174030884	14107	100136	2.701798557169028	0.029083900188242633	10	3	[]	4351	1	10
meta	Lachesis_group4__56_contigs__length_174030884	4342	100136	2.6817845624393346	0.049097894917935814	128	5	[]	4351	1	128
meta	Lachesis_group4__56_contigs__length_174030884	14506	100136	2.6762283245593146	0.05465413279795617	3369	10	[]	4351	1	3369
meta	Lachesis_group4__56_contigs__length_174030884	13994	100136	2.696502038573515	0.034380418783755556	45	16	[]	4351	1	45
meta	Lachesis_group4__56_contigs__length_174030884	14008	100136	2.6837604304390954	0.047122026918175144	97	24	[]	4351	1	97
meta	Lachesis_group4__56_contigs__length_174030884	14477	100136	2.6835538944275568	0.047328562929713776	314	26	[]	4351	1	314
meta	Lachesis_group4__56_contigs__length_174030884	9069	100136	2.6685760666780074	0.06230639067926323	4160	354	7	4351	1	4160
meta	Lachesis_group4__56_contigs__length_174030884	4379	100136	2.699861136837976	0.03102132051929442	7	4	4	4351	1	7
meta	Lachesis_group4__56_contigs__length_174030884	13194	100136	2.646069563083328	0.0848128942739424	4314	120	8	4351	1	4314
meta	Lachesis_group4__56_contigs__length_174030884	14252	100136	2.704497975189935	0.026384482167335348	9	6	4	4351	1	9
meta	Lachesis_group4__56_contigs__length_174030884	12213	100136	2.6892489413777025	0.04163351597956794	29	19	4	4351	1	29
meta	Lachesis_group5__70_contigs__length_158228327	4457	104397	0.3735973340954036	0.057115970207853105	3444	14	[]	3956	1	3444
meta	Lachesis_group5__70_contigs__length_158228327	13804	104397	0.38219837067896306	0.04851493362429358	1534	29	[]	3956	1	1534
meta	Lachesis_group5__70_contigs__length_158228327	14400	104397	0.3956583988565025	0.03505490544675409	41	9	[]	3956	1	41
meta	Lachesis_group5__70_contigs__length_158228327	14057	104397	0.3974399738757941	0.03327333042746248	24	13	[]	3956	1	24
meta	Lachesis_group5__70_contigs__length_158228327	4180	104397	0.3773416743347448	0.0533716299685118	117	48	[]	3956	1	117
meta	Lachesis_group5__70_contigs__length_158228327	13845	104397	0.40892165124729324	0.02179165305596336	5	4	[]	3956	1	5
meta	Lachesis_group5__70_contigs__length_158228327	14548	104397	0.38207219581519836	0.04864110848805828	155	6	[]	3956	1	155
meta	Lachesis_group5__70_contigs__length_158228327	14391	104397	0.40390154957954827	0.02681175472370835	9	6	[]	3956	1	9
meta	Lachesis_group5__70_contigs__length_158228327	4317	104397	0.3610772058411559	0.06963609846210075	3816	14	[]	3956	1	3816
meta	Lachesis_group5__70_contigs__length_158228327	14454	104397	0.39915650316569706	0.03155680113755956	21	17	[]	3956	1	21
meta	Lachesis_group5__70_contigs__length_158228327	14302	104397	0.36942819728291276	0.0612851070203439	3809	13	[]	3956	1	3809
meta	Lachesis_group5__70_contigs__length_158228327	4482	104397	0.3943137422336678	0.03639956206958883	19	15	[]	3956	1	19
meta	Lachesis_group5__70_contigs__length_158228327	14507	104397	0.4051698376757702	0.025543466627486393	6	5	[]	3956	1	6
meta	Lachesis_group5__70_contigs__length_158228327	14310	104397	0.4035169084131542	0.027196395890102407	14	14	[]	3956	1	14
meta	Lachesis_group5__70_contigs__length_158228327	4213	104397	0.3824511985986274	0.04826210570462918	623	25	[]	3956	1	623
meta	Lachesis_group5__70_contigs__length_158228327	14121	104397	0.3905356548082495	0.04017764949500712	59	34	[]	3956	1	59
meta	Lachesis_group5__70_contigs__length_158228327	14020	104397	0.3886134051156752	0.042099899187581405	31	16	[]	3956	1	31
meta	Lachesis_group5__70_contigs__length_158228327	13950	104397	0.4033508206215578	0.02736248368169879	9	8	[]	3956	1	9
meta	Lachesis_group5__70_contigs__length_158228327	4501	104397	0.38584394503232267	0.04486935927093394	30	12	[]	3956	1	30
meta	Lachesis_group5__70_contigs__length_158228327	14247	104397	0.3821690682710838	0.04854423603217282	1535	8	[]	3956	1	1535
meta	Lachesis_group5__70_contigs__length_158228327	10162	104397	0.3877086998862709	0.04300460441698572	178	17	4	3956	1	178
meta	Lachesis_group5__70_contigs__length_158228327	6861	104397	0.3834133422283662	0.04729996207489043	388	9	4	3956	1	388
meta	Lachesis_group5__70_contigs__length_158228327	1291	104397	0.3853994460203546	0.045313858282902034	323	6	4	3956	1	323
meta	Lachesis_group5__70_contigs__length_158228327	4349	104397	0.3440010547412402	0.08671224956201654	3904	35	9	3956	1	3904
meta	Lachesis_group5__70_contigs__length_158228327	15194	104397	0.39714756176861343	0.0335657425346432	21	11	5	3956	1	21
meta	Lachesis_group5__70_contigs__length_158228327	1276	104397	0.3771329182394293	0.05358038606382731	32	7	3	3956	1	32
meta	Lachesis_group5__70_contigs__length_158228327	15210	104397	0.40040324757798545	0.030310056725271164	14	5	3	3956	1	14
meta	Lachesis_group5__70_contigs__length_158228327	9076	104397	0.39654126379845356	0.03417204050480305	27	7	3	3956	1	27
meta	Lachesis_group5__70_contigs__length_158228327	12194	104397	0.3698271674677527	0.06088613683550399	3723	45	6	3956	1	3723
meta	Lachesis_group5__70_contigs__length_158228327	4411	104397	0.38902149052424556	0.04169181377901104	57	49	8	3956	1	57
meta	Lachesis_group5__70_contigs__length_158228327	4203	104397	0.38481444958983896	0.04589885471341766	357	56	16	3956	1	357
meta	Lachesis_group5__70_contigs__length_158228327	4273	104397	0.3327544149062876	0.09795888939696908	3907	17	7	3956	1	3907
meta	Lachesis_group5__70_contigs__length_158228327	6895	104397	0.37646165106550167	0.05425165323775496	2749	68	4	3956	1	2749
meta	Lachesis_group5__70_contigs__length_158228327	6857	104397	0.29821397474986416	0.13249932955339264	3911	38	8	3956	1	3911
meta	Lachesis_group5__70_contigs__length_158228327	8358	104397	0.3970955445517699	0.033617759751486766	51	24	5	3956	1	51
meta	Lachesis_group6__62_contigs__length_156955521	4441	109206	0.20665093113635763	0.0469503979374878	605	2	[]	3924	1	605
meta	Lachesis_group6__62_contigs__length_156955521	4336	109206	0.21908850383188289	0.034512825241962516	11	9	[]	3924	1	11
meta	Lachesis_group6__62_contigs__length_156955521	4348	109206	0.2270115798157127	0.026589749258132702	12	8	[]	3924	1	12
meta	Lachesis_group6__62_contigs__length_156955521	4302	109206	0.22217197945457742	0.031429349619268	10	2	[]	3924	1	10
meta	Lachesis_group6__62_contigs__length_156955521	4495	109206	0.19611778833606486	0.057483540737780725	3620	5	[]	3924	1	3620
meta	Lachesis_group6__62_contigs__length_156955521	14331	109206	0.22093859007976763	0.03266273899407779	17	16	[]	3924	1	17
meta	Lachesis_group6__62_contigs__length_156955521	4286	109206	0.2229474380497768	0.03065389102406864	14	6	[]	3924	1	14
meta	Lachesis_group6__62_contigs__length_156955521	13869	109206	0.206144912335132	0.047456416738713425	860	9	[]	3924	1	860
meta	Lachesis_group6__62_contigs__length_156955521	14077	109206	0.22484725792868232	0.02875407114516309	11	8	[]	3924	1	11
meta	Lachesis_group6__62_contigs__length_156955521	4216	109206	0.21522407297090226	0.03837725610294315	34	9	[]	3924	1	34
meta	Lachesis_group6__62_contigs__length_156955521	4223	109206	0.22043642481230113	0.033164904261544274	48	42	[]	3924	1	48
meta	Lachesis_group6__62_contigs__length_156955521	14591	109206	0.223880446206698	0.02972088286714742	7	4	[]	3924	1	7
meta	Lachesis_group6__62_contigs__length_156955521	4338	109206	0.21228858524086722	0.0413127438329782	148	51	[]	3924	1	148
meta	Lachesis_group6__62_contigs__length_156955521	13859	109206	0.22364973444495706	0.029951594628888363	7	7	[]	3924	1	7
meta	Lachesis_group6__62_contigs__length_156955521	14501	109206	0.2101591516546027	0.04344217741924274	401	10	[]	3924	1	401
meta	Lachesis_group6__62_contigs__length_156955521	14535	109206	0.2169665017356184	0.03663482733822701	23	12	[]	3924	1	23
meta	Lachesis_group6__62_contigs__length_156955521	13874	109206	0.22674096407801522	0.026860364995830197	4	4	[]	3924	1	4
meta	Lachesis_group6__62_contigs__length_156955521	4492	109206	0.2181406731680221	0.035460655905823306	6	2	[]	3924	1	6
meta	Lachesis_group6__62_contigs__length_156955521	14304	109206	0.20897632193384427	0.04462500714000115	330	47	[]	3924	1	330
meta	Lachesis_group6__62_contigs__length_156955521	4233	109206	0.22266170762135146	0.030939621452493946	22	11	[]	3924	1	22
meta	Lachesis_group6__62_contigs__length_156955521	13871	109206	0.20366211009726182	0.0499392189765836	27	13	[]	3924	1	27
meta	Lachesis_group6__62_contigs__length_156955521	14119	109206	0.21304637179403185	0.04055495727981355	74	16	[]	3924	1	74
meta	Lachesis_group6__62_contigs__length_156955521	14063	109206	0.20529770874648406	0.048303620327361386	337	8	[]	3924	1	337
meta	Lachesis_group6__62_contigs__length_156955521	6929	109206	0.20539776968445725	0.04820355938938821	1211	27	8	3924	1	1211
meta	Lachesis_group6__62_contigs__length_156955521	1224	109206	0.20653206392015439	0.04706926515369106	264	21	6	3924	1	264
meta	Lachesis_group6__62_contigs__length_156955521	6910	109206	0.2075771507319953	0.04602417834185012	86	60	3	3924	1	86
meta	Lachesis_group6__62_contigs__length_156955521	6931	109206	0.20270819011023128	0.05089313896361422	2885	157	12	3924	1	2885
meta	Lachesis_group6__62_contigs__length_156955521	4443	109206	0.21498501643123538	0.03861631264261005	71	26	5	3924	1	71
meta	Lachesis_group6__62_contigs__length_156955521	4346	109206	0.21829056717989198	0.03531076189395345	24	13	4	3924	1	24
meta	Lachesis_group6__62_contigs__length_156955521	6905	109206	0.23088660519902607	0.02271472387481934	5	5	4	3924	1	5
meta	Lachesis_group6__62_contigs__length_156955521	15205	109206	0.23220608349108643	0.02139524558275899	4	2	3	3924	1	4
meta	Lachesis_group6__62_contigs__length_156955521	4177	109206	0.22269390694076846	0.030907422133076973	13	13	4	3924	1	13
meta	Lachesis_group6__62_contigs__length_156955521	1208	109206	0.22496025523062688	0.028641073843218533	11	10	3	3924	1	11
meta	Lachesis_group6__62_contigs__length_156955521	6894	107252	0.1268006645369227	0.1268006645369227	3884	1	5	3924	1	3884
meta	Lachesis_group7__52_contigs__length_145002158	4390	110066	0.6519289984436145	0.05117188739319152	2287	24	[]	3626	1	2287
meta	Lachesis_group7__52_contigs__length_145002158	14178	110066	0.6679064818033584	0.03519440403344763	15	13	[]	3626	1	15
meta	Lachesis_group7__52_contigs__length_145002158	4130	110066	0.6774693386105008	0.025631547226305184	2	2	[]	3626	1	2
meta	Lachesis_group7__52_contigs__length_145002158	4155	110066	0.6478389858774236	0.05526189995938258	2883	9	[]	3626	1	2883
meta	Lachesis_group7__52_contigs__length_145002158	14364	110066	0.6621726531653696	0.04092823267143649	21	14	[]	3626	1	21
meta	Lachesis_group7__52_contigs__length_145002158	4134	110066	0.6708672544132961	0.03223363142351001	13	6	[]	3626	1	13
meta	Lachesis_group7__52_contigs__length_145002158	4153	110066	0.6733676276532916	0.029733258183514386	12	10	[]	3626	1	12
meta	Lachesis_group7__52_contigs__length_145002158	13915	110066	0.6693659151879172	0.033734970648888786	15	8	[]	3626	1	15
meta	Lachesis_group7__52_contigs__length_145002158	14450	110066	0.662919516780414	0.040181369056391976	19	9	[]	3626	1	19
meta	Lachesis_group7__52_contigs__length_145002158	14951	110066	0.6648229050156056	0.038277980821200486	109	90	3	3626	1	109
meta	Lachesis_group7__52_contigs__length_145002158	6896	110066	0.6453692917947528	0.057731594042053434	3122	18	5	3626	1	3122
meta	Lachesis_group7__52_contigs__length_145002158	6828	110066	0.669679194463934	0.033421691372872174	17	4	3	3626	1	17
meta	Lachesis_group7__52_contigs__length_145002158	9056	110066	0.6768875669858072	0.026213318850998934	11	10	4	3626	1	11
meta	Lachesis_group7__52_contigs__length_145002158	10184	110066	0.6668799415538909	0.03622094428291513	15	9	3	3626	1	15
meta	Lachesis_group8__53_contigs__length_148332072	14070	114409	0.33106775103903996	0.04498901548197992	40	8	[]	3709	1	40
meta	Lachesis_group8__53_contigs__length_148332072	11522	114409	0.33147333272634905	0.04458343379467082	126	49	[]	3709	1	126
meta	Lachesis_group8__53_contigs__length_148332072	4201	114409	0.31251535454951285	0.0635414119715072	3611	17	[]	3709	1	3611
meta	Lachesis_group8__53_contigs__length_148332072	13820	114409	0.3412040207659449	0.03485274575507498	50	10	[]	3709	1	50
meta	Lachesis_group8__53_contigs__length_148332072	13955	114409	0.3621870348137813	0.013869731707238592	2	3	[]	3709	1	2
meta	Lachesis_group8__53_contigs__length_148332072	4277	114409	0.35071669901406644	0.025340067506953442	8	6	[]	3709	1	8
meta	Lachesis_group8__53_contigs__length_148332072	4436	114409	0.3360556016870999	0.04000116483391996	27	9	[]	3709	1	27
meta	Lachesis_group8__53_contigs__length_148332072	13853	114409	0.3430540804984099	0.033002686022610014	27	9	[]	3709	1	27
meta	Lachesis_group8__53_contigs__length_148332072	14288	114409	0.342995719562299	0.033061046958720905	37	11	[]	3709	1	37
meta	Lachesis_group8__53_contigs__length_148332072	14571	114409	0.32720419137965273	0.048852575141367136	50	4	3	3709	1	50
meta	Lachesis_group8__53_contigs__length_148332072	6830	114409	0.32651192997984	0.04954483654117989	1682	218	8	3709	1	1682
meta	Lachesis_group8__53_contigs__length_148332072	6925	114409	0.3297940107226774	0.046262755798342506	771	91	4	3709	1	771
meta	Lachesis_group8__53_contigs__length_148332072	1229	114409	0.31410906128703353	0.06194770523398646	3609	115	8	3709	1	3609
meta	Lachesis_group8__53_contigs__length_148332072	1246	114409	0.3243766190878953	0.051680147433124615	2479	133	13	3709	1	2479
meta	Lachesis_group8__53_contigs__length_148332072	4283	114409	0.3369879086748563	0.03906885784616356	42	14	7	3709	1	42
meta	Lachesis_group8__53_contigs__length_148332072	4234	114409	0.32081281142507434	0.05524395509594561	3133	7	6	3709	1	3133
meta	Lachesis_group9__67_contigs__length_144638433	14211	117066	0.15938336345878235	0.04108014827304397	65	16	[]	3616	1	65
meta	Lachesis_group9__67_contigs__length_144638433	4479	117066	0.16948489410307221	0.030978617628754104	10	8	[]	3616	1	10
meta	Lachesis_group9__67_contigs__length_144638433	9067	117066	0.14210266028435464	0.05836085144747185	3429	123	[]	3616	1	3429
meta	Lachesis_group9__67_contigs__length_144638433	13920	117066	0.17062129232060855	0.02984221941121779	36	9	[]	3616	1	36
meta	Lachesis_group9__67_contigs__length_144638433	14203	117066	0.15134342441595913	0.04912008731586724	2757	4	[]	3616	1	2757
meta	Lachesis_group9__67_contigs__length_144638433	13807	117066	0.15873777184892043	0.0417257398829059	11	6	[]	3616	1	11
meta	Lachesis_group9__67_contigs__length_144638433	14267	117066	0.1578075975405108	0.042655914191315536	581	16	[]	3616	1	581
meta	Lachesis_group9__67_contigs__length_144638433	4301	117066	0.16659503386927954	0.03386847786254681	13	5	[]	3616	1	13
meta	Lachesis_group9__67_contigs__length_144638433	13960	117066	0.16840626621089674	0.032057245520929596	33	11	[]	3616	1	33
meta	Lachesis_group9__67_contigs__length_144638433	14347	117066	0.1580990530047224	0.042364458727103926	479	14	[]	3616	1	479
meta	Lachesis_group9__67_contigs__length_144638433	13904	117066	0.1717945776582764	0.028668934073549923	26	12	[]	3616	1	26
meta	Lachesis_group9__67_contigs__length_144638433	4504	117066	0.16915709561332978	0.03130641611849654	7	4	[]	3616	1	7
meta	Lachesis_group9__67_contigs__length_144638433	14417	117066	0.1509605707621033	0.04950294096972302	62	12	[]	3616	1	62
meta	Lachesis_group9__67_contigs__length_144638433	13848	117066	0.16723570106442315	0.03322781066740317	15	5	[]	3616	1	15
meta	Lachesis_group9__67_contigs__length_144638433	4425	117066	0.1685606556733017	0.03190285605852465	47	14	[]	3616	1	47
meta	Lachesis_group9__67_contigs__length_144638433	14479	117066	0.1592596129200314	0.041203898811794926	22	11	[]	3616	1	22
meta	Lachesis_group9__67_contigs__length_144638433	14521	117066	0.17310949478623167	0.027354016945594667	8	4	[]	3616	1	8
meta	Lachesis_group9__67_contigs__length_144638433	4432	117066	0.17803974871404707	0.022423763017779264	5	4	[]	3616	1	5
meta	Lachesis_group9__67_contigs__length_144638433	13965	117066	0.16082141642509362	0.0396420953067327	12	11	[]	3616	1	12
meta	Lachesis_group9__67_contigs__length_144638433	14517	117066	0.17332335573238086	0.027140155999445473	8	5	[]	3616	1	8
meta	Lachesis_group9__67_contigs__length_144638433	4449	117066	0.15868369138505384	0.04177982034677251	26	8	[]	3616	1	26
meta	Lachesis_group9__67_contigs__length_144638433	4127	117066	0.15191113483564966	0.048552376896176745	2368	13	6	3616	1	2368
meta	Lachesis_group9__67_contigs__length_144638433	10188	117066	0.14636026759310128	0.05410324413872506	3120	60	5	3616	1	3120
