# ClusterVec file - see ClusterVec.h for documentation of this object type
#
# N_contigs = 3876
# Number of clusters: 48
# Number of contigs in clusters: 3598
#
# There is one (non-commented) line in this file for each cluster.
# Each line lists all the contigs, indicated by their ID in the draft assembly, in that cluster.
#
49	106	108	168	174	397	425	457	537	573	613	621	632	670	697	722	754	811	894	915	983	1007	1011	1022	1072	1115	1173	1199	1230	1408	1452	1500	1531	1543	1791	1793	1813	1819	1952	2020	2109	2196	2219	2234	2273	2312	2338	2346	2382	2395	2397	2446	2554	2714	2755	2767	2818	2912	3094	3178	3186	3225	3240	3244	3256	3257	3267	3287	3354	3406	3418	3447	3455	3525	3565	3677	3697	3703	3812	3842
31	66	160	180	272	274	323	454	494	616	643	649	723	778	788	790	840	900	909	976	1020	1091	1095	1102	1146	1161	1181	1326	1338	1357	1612	1723	1789	1907	1911	2068	2087	2091	2136	2188	2207	2260	2301	2302	2306	2327	2363	2368	2414	2666	2748	2778	2782	2809	2856	2870	2878	2895	2987	3053	3081	3106	3139	3151	3179	3192	3198	3224	3258	3263	3364	3398	3415	3451	3501	3507	3542	3559	3636	3638	3710	3760	3784	3813
67	89	161	232	248	375	470	640	690	698	888	948	1065	1119	1189	1303	1306	1346	1383	1482	1593	1681	1714	1747	1821	1833	1899	1917	2055	2116	2167	2272	2343	2401	2534	2555	2613	2625	2743	2772	2806	2880	2888	2948	3009	3032	3069	3140	3187	3223	3246	3286	3331	3370	3371	3379	3438	3463	3614	3715	3787	3810	3828	3829
84	95	136	146	198	215	221	260	271	288	509	518	528	570	594	637	741	783	793	824	1063	1071	1169	1251	1258	1309	1362	1367	1388	1459	1478	1502	1586	1603	1623	1743	1780	1827	1839	1898	1904	1950	2002	2105	2139	2163	2171	2201	2378	2400	2443	2480	2631	2636	2701	2725	2729	2730	2733	2839	2937	3021	3270	3289	3384	3506	3539	3577	3694	3837
172	193	196	336	379	439	501	557	569	597	605	781	826	831	917	935	972	1035	1038	1046	1082	1168	1186	1200	1237	1249	1323	1434	1513	1549	1624	1733	1805	1890	1891	1901	1918	1923	1930	1945	2009	2098	2159	2241	2269	2344	2402	2421	2482	2584	2686	2779	2808	2876	2877	2914	2944	3029	3092	3109	3188	3235	3388	3403	3464	3476	3502	3514	3516	3579	3632	3650	3654	3709	3742	3796	3830	3871
107	126	170	206	217	237	251	517	530	561	579	615	672	681	786	792	809	810	830	855	863	902	926	928	960	1002	1028	1057	1124	1147	1206	1216	1374	1496	1511	1524	1532	1572	1588	1598	1656	1688	1848	1889	1951	1974	1980	2103	2104	2126	2197	2221	2240	2324	2386	2399	2457	2477	2498	2545	2550	2596	2673	2681	2717	2728	2732	2790	2823	2832	2845	2882	2887	2911	3013	3075	3088	3136	3137	3157	3166	3262	3361	3363	3389	3551	3555	3568	3570	3596	3597	3728	3736	3814	3823	3846	3859
8	87	112	164	307	344	381	436	440	484	514	559	622	644	673	693	746	779	798	825	896	905	1040	1286	1288	1310	1321	1347	1358	1430	1514	1521	1538	1556	1651	1694	1696	1727	1730	1815	1836	1867	1931	1968	1975	1990	2011	2026	2027	2042	2089	2112	2132	2161	2282	2316	2334	2350	2361	2369	2370	2377	2433	2440	2462	2471	2580	2597	2656	2664	2925	2965	2980	3057	3091	3135	3149	3174	3227	3245	3283	3291	3304	3327	3375	3385	3396	3491	3509	3634	3691	3696	3755
36	86	94	113	147	227	265	342	393	399	451	475	577	629	641	735	748	769	892	977	1019	1120	1136	1241	1281	1416	1422	1491	1559	1569	1570	1692	1703	1774	1794	1801	1903	1947	1998	2010	2054	2058	2061	2088	2107	2148	2244	2379	2392	2459	2475	2519	2585	2640	2661	2665	2872	2924	2959	2970	2982	3160	3163	3212	3250	3269	3312	3318	3400	3413	3434	3557	3562	3611	3698	3745	3756	3850	3853
5	38	53	63	267	285	315	334	373	395	416	438	447	543	667	721	801	838	861	1034	1108	1152	1157	1307	1329	1353	1370	1397	1411	1479	1614	1634	1646	1649	1650	1653	1667	1751	1853	1954	2007	2095	2247	2317	2354	2359	2415	2533	2619	2811	2894	2915	2936	2979	3030	3076	3211	3264	3295	3347	3528	3589	3609	3648	3676	3751	3763	3800	3809
23	25	27	58	80	123	124	142	222	304	313	347	403	412	453	512	546	625	633	639	674	695	706	734	744	839	852	872	903	1055	1078	1156	1174	1187	1201	1275	1333	1366	1376	1391	1474	1488	1545	1587	1648	1709	1720	1773	1799	1900	1906	2005	2063	2143	2151	2229	2396	2441	2538	2668	2711	2802	2854	3028	3064	3073	3161	3172	3194	3213	3313	3328	3348	3350	3352	3410	3436	3441	3504	3512	3517	3556	3637	3659	3726	3759	3793	3816
128	145	158	163	169	226	262	284	301	394	418	428	437	526	539	617	620	708	821	920	995	1089	1193	1231	1243	1341	1343	1386	1460	1462	1468	1477	1622	1635	1781	1860	1909	1979	1997	2083	2125	2129	2215	2303	2529	2543	2610	2614	2652	2663	2737	2781	2800	2896	2922	2978	3011	3024	3173	3221	3404	3420	3466	3490	3518	3552	3567	3652	3788	3799	3847	3858
71	74	85	138	201	233	352	405	430	471	477	515	531	556	585	647	714	733	739	763	777	819	886	899	934	950	1003	1006	1073	1079	1086	1143	1280	1292	1300	1495	1539	1541	1585	1645	1722	1755	1855	1869	1882	1932	1977	2028	2029	2031	2033	2108	2162	2178	2200	2217	2242	2313	2356	2357	2358	2371	2420	2444	2463	2524	2605	2827	2840	2853	2864	2866	2898	2900	2905	2942	2955	2963	2989	3017	3025	3056	3067	3080	3103	3243	3259	3297	3305	3411	3467	3629	3660	3671	3689	3732	3740	3772	3798	3844
42	264	456	548	686	812	898	922	961	1014	1064	1106	1159	1525	1566	1630	1745	1870	1953	1995	2021	2046	2170	2210	2233	2290	2310	2364	2434	2439	2467	2495	2497	2500	2556	2629	2632	2648	2796	2964	3012	3020	3102	3150	3154	3169	3180	3214	3222	3231	3359	3376	3432	3481	3493	3540	3588	3598	3753	3776
171	223	231	241	246	268	281	302	343	356	382	383	419	466	478	551	603	611	679	682	689	715	910	949	951	962	999	1027	1032	1290	1291	1308	1350	1360	1394	1407	1471	1555	1599	1769	1803	1826	1878	1935	2004	2023	2209	2296	2325	2347	2355	2483	2521	2523	2558	2560	2588	2642	2712	2724	2745	2817	2822	2930	3071	3079	3144	3145	3168	3320	3393	3409	3426	3477	3489	3541	3554	3571	3572	3592	3704	3735	3774	3778
12	104	152	203	218	333	359	479	496	504	567	604	729	745	758	766	817	975	980	993	1029	1047	1293	1298	1382	1436	1458	1652	1666	1770	1772	1808	1828	1832	1847	1926	1966	1994	2003	2318	2351	2489	2608	2669	2699	2903	2983	2985	2988	3036	3060	3066	3232	3293	3356	3479	3503	3574	3628	3631	3675	3716	3752	3867
122	234	329	331	360	404	600	747	755	789	849	927	955	1096	1129	1130	1204	1224	1233	1255	1322	1406	1461	1470	1563	1576	1597	1615	1754	1758	1775	1786	1795	1814	1879	1956	1964	2056	2133	2144	2165	2168	2204	2225	2237	2250	2326	2375	2393	2451	2461	2476	2501	2527	2566	2575	2616	2702	2706	2744	2773	2795	2828	2932	2966	2968	2999	3156	3266	3325	3373	3391	3422	3439	3711	3725	3836	3860
33	110	224	254	367	380	388	421	434	465	511	550	553	574	581	666	709	737	805	808	816	904	932	942	1118	1232	1244	1449	1672	1685	1728	1757	1761	1783	1790	1797	1838	1877	2066	2079	2122	2174	2191	2218	2226	2246	2254	2285	2490	2494	2499	2510	2544	2689	2700	2765	2850	2892	3016	3086	3203	3236	3281	3405	3423	3430	3440	3444	3446	3454	3575	3600	3743	3790	3797	3840	3855
40	183	197	199	213	255	270	282	295	296	353	366	368	565	578	678	719	768	800	807	930	968	978	1123	1163	1177	1183	1213	1248	1269	1279	1282	1285	1296	1385	1399	1481	1499	1515	1567	1617	1639	1647	1711	1737	1812	1875	1938	1988	2090	2102	2155	2220	2276	2286	2330	2445	2455	2486	2491	2535	2571	2590	2592	2644	2646	2653	2785	2837	2841	2908	2969	3129	3176	3284	3366	3368	3529	3532	3553	3569	3582	3635	3647	3712	3765	3856
29	181	235	316	318	321	332	426	483	547	554	590	609	677	829	878	996	1024	1100	1109	1149	1197	1222	1254	1272	1276	1283	1295	1302	1344	1361	1387	1390	1396	1443	1447	1498	1583	1643	1680	1701	1718	1744	1753	1767	1818	1850	1908	1920	1963	2076	2094	2130	2141	2183	2184	2231	2249	2288	2293	2323	2532	2573	2609	2670	2720	2750	2753	2763	2766	2775	2780	2803	2804	2814	2950	2957	2993	3015	3065	3070	3089	3116	3155	3158	3197	3215	3216	3234	3323	3342	3419	3488	3498	3508	3543	3656	3669	3695	3705	3758	3775	3835	3857
21	45	69	105	176	177	182	253	354	458	513	628	699	713	740	854	883	906	918	992	1121	1176	1185	1223	1226	1304	1348	1489	1553	1633	1863	1897	1985	2071	2140	2182	2258	2311	2319	2517	2561	2723	2736	2792	2825	2881	2967	2996	3002	3078	3093	3112	3204	3437	3537	3547	3585	3615	3668	3713	3714	3729
185	194	225	273	337	420	459	630	645	664	705	756	775	796	820	914	938	952	1013	1018	1070	1110	1112	1141	1162	1234	1240	1266	1395	1417	1425	1506	1523	1533	1552	1589	1611	1659	1661	1674	1690	1866	1944	2030	2114	2124	2199	2232	2235	2239	2243	2261	2299	2333	2408	2432	2474	2504	2537	2593	2630	2746	2844	2862	2869	2890	2920	2923	2931	2938	2960	2972	2984	3005	3039	3083	3120	3165	3181	3190	3195	3285	3303	3332	3338	3386	3458	3497	3527	3779	3868
300	330	350	407	431	449	503	505	532	627	636	773	787	818	867	936	969	998	1088	1184	1196	1256	1278	1305	1319	1369	1375	1427	1465	1529	1578	1581	1584	1613	1671	1742	1859	1957	1970	1996	2022	2084	2096	2123	2147	2252	2270	2304	2328	2553	2587	2620	2627	2655	2709	2859	2906	2956	2997	3038	3085	3113	3233	3435	3468	3500	3610	3630	3690	3717	3738	3764	3802	3833	3872
2	6	51	68	101	139	202	240	292	338	341	410	442	491	635	718	750	795	799	822	954	990	1067	1093	1151	1178	1190	1263	1294	1490	1505	1557	1568	1621	1699	1936	1948	1969	1983	1999	2025	2383	2426	2472	2479	2511	2662	2667	2734	2783	2801	2824	2830	2835	2846	2849	2951	3111	3382	3602	3644	3664	3665	3670	3692	3744	3761	3762	3767	3771	3808
81	133	188	230	250	320	365	392	566	602	654	655	717	848	923	1030	1043	1167	1250	1267	1389	1413	1480	1571	1574	1638	1693	1831	1861	1872	1976	1978	2062	2164	2287	2384	2422	2435	2478	2602	2637	2638	2659	2678	2722	2992	3008	3189	3219	3239	3335	3448	3536	3564	3623	3653	3683	3702	3724	3770
13	18	26	90	97	103	141	239	263	286	308	324	433	480	520	535	642	851	865	874	933	940	958	981	989	1202	1235	1487	1528	1655	1740	1765	1802	1806	1927	1967	2211	2331	2348	2406	2407	2682	2710	2719	2771	2819	3031	3114	3159	3185	3336	3357	3558	3581	3618	3633	3693	3777
17	32	59	99	446	460	571	582	623	661	683	688	700	772	1036	1041	1059	1066	1074	1131	1192	1349	1359	1432	1463	1520	1530	1546	1548	1575	1601	1605	1657	1716	1732	1746	1771	1960	1965	2049	2053	2283	2305	2411	2493	2514	2564	2583	2586	2622	2654	2713	2735	2752	2768	2797	2851	3133	3148	3238	3252	3317	3450	3456	3480	3548	3586	3604	3666	3780	3826
93	156	157	165	178	277	280	289	291	326	361	386	445	450	493	498	508	564	588	601	732	753	761	780	782	828	1104	1155	1205	1242	1312	1345	1402	1476	1620	1676	1678	1682	1712	1824	1845	1846	1856	1959	2036	2085	2097	2135	2208	2267	2279	2412	2485	2548	2565	2572	2598	2603	2770	3023	3237	3255	3278	3452	3492	3599	3608	3622	3701	3807
20	43	121	167	210	211	261	406	417	525	618	692	752	760	776	850	864	868	870	876	890	994	1017	1085	1325	1356	1372	1438	1486	1580	1628	1642	1654	1760	1822	2039	2177	2248	2255	2266	2294	2380	2404	2473	2488	2525	2687	2707	2865	2935	2994	3034	3035	3037	3117	3218	3337	3462	3474	3667	3680	3719	3733	3783	3795
19	56	60	83	109	111	114	166	242	244	311	413	472	612	676	814	845	873	875	877	885	924	964	1031	1039	1127	1165	1317	1328	1330	1410	1423	1618	1677	1739	1779	1884	1984	1987	2001	2019	2034	2153	2157	2189	2203	2212	2321	2341	2366	2484	2487	2563	2577	2615	2672	2708	2741	2747	2756	2810	2902	2928	2952	3047	3272	3421	3424	3530	3594	3658	3700	3750	3851
1	7	9	14	46	50	62	91	117	130	179	249	258	364	391	423	448	467	486	506	576	614	749	843	858	897	959	991	1010	1175	1179	1252	1261	1334	1377	1492	1573	1610	1675	1700	1708	1719	1764	1798	1849	1876	1892	1896	1929	2052	2069	2120	2134	2160	2214	2263	2353	2503	2505	2542	2628	2633	2692	2695	2716	2739	2757	2901	3004	3044	3207	3345	3381	3383	3416	3433	3673	3684	3685	3768	3839	3843	3845	3870
57	132	195	243	278	462	469	527	549	560	650	724	785	835	853	884	985	1052	1103	1218	1228	1257	1265	1289	1331	1368	1455	1504	1721	1750	1784	1830	1844	1858	1914	1915	1916	1933	2070	2080	2100	2101	2154	2180	2509	2528	2645	2674	2684	2805	2858	2861	2945	3058	3084	3115	3130	3191	3367	3417	3472	3475	3642	3651	3681	3687	3862
48	54	118	134	204	220	252	275	279	293	294	305	309	378	385	435	502	507	524	743	757	882	901	908	931	944	957	982	1139	1154	1336	1365	1378	1380	1398	1445	1536	1608	1664	1684	1710	1738	1852	1873	1874	1942	1943	1981	2065	2073	2138	2152	2181	2186	2228	2315	2365	2418	2449	2454	2589	2671	2683	2688	2867	2873	2889	2910	2954	2991	2998	3007	3046	3107	3344	3390	3425	3478	3563	3591	3682
28	39	82	92	125	135	151	303	396	522	533	610	707	710	764	771	834	847	880	939	1016	1092	1138	1182	1225	1299	1435	1439	1448	1475	1483	1501	1508	1519	1561	1660	1662	1715	1736	1835	1857	1902	1910	2013	2015	2017	2067	2172	2295	2410	2427	2626	2643	2677	2696	2718	2751	2769	2834	2843	2848	2939	3041	3124	3147	3220	3261	3302	3374	3496	3513	3544	3625	3641	3785	3789	3821
16	34	70	120	154	189	208	322	387	415	485	516	542	720	751	857	891	1021	1111	1166	1271	1274	1284	1337	1429	1527	1668	1763	1820	1840	2077	2300	2309	2322	2352	2372	2381	2398	2437	2481	2567	2591	2639	2784	2798	2836	2871	2874	2885	2897	2917	3043	3048	3072	3087	3121	3171	3202	3242	3294	3340	3387	3483	3505	3520	3546	3576	3584	3646	3721	3734	3748	3841	3874
44	98	143	200	245	306	429	487	538	586	606	726	836	921	1048	1148	1239	1262	1270	1311	1320	1324	1332	1342	1351	1405	1418	1442	1456	1537	1695	1704	1725	1778	1851	1881	1921	1946	2016	2118	2198	2224	2245	2256	2264	2307	2450	2458	2518	2526	2541	2569	2918	2940	2986	3018	3063	3142	3184	3321	3482	3484	3495	3519	3583	3613	3679	3686	3746	3803	3832	3834	3848	3861
259	290	325	345	349	455	488	490	521	589	591	669	704	727	738	913	967	997	1004	1049	1133	1135	1137	1150	1158	1203	1207	1211	1238	1301	1363	1400	1446	1493	1494	1509	1558	1689	1809	1865	1880	1961	2006	2115	2205	2206	2374	2405	2425	2429	2430	2547	2650	2704	2721	2727	2826	2838	2946	2990	3001	3095	3132	3138	3141	3153	3164	3175	3241	3271	3279	3296	3306	3428	3453	3511	3533	3560	3607	3662	3723	3822
35	140	207	209	256	358	370	400	422	424	444	540	599	638	662	691	856	925	979	1012	1153	1212	1227	1245	1260	1415	1419	1503	1550	1606	1673	1729	1748	1825	1841	1862	1893	1924	1925	2074	2113	2146	2388	2502	2559	2740	2759	2816	2821	2875	2949	2976	2977	3052	3062	3074	3096	3097	3098	3118	3122	3123	3152	3183	3247	3310	3334	3343	3369	3487	3499	3619	3655	3838	3869
11	37	73	75	77	162	187	191	229	314	327	340	363	414	427	441	489	592	646	652	671	684	685	716	815	859	869	912	1044	1056	1097	1221	1313	1379	1381	1409	1412	1428	1441	1473	1551	1560	1604	1619	1629	1636	1644	1658	1749	1823	1949	1982	2048	2086	2110	2268	2336	2423	2442	2452	2530	2540	2568	2651	2777	2794	2799	2886	2904	3040	3049	3090	3126	3275	3276	3292	3309	3314	3341	3360	3457	3471	3524	3535	3620	3645	3649	3706	3747
15	47	76	102	351	384	408	461	500	519	544	558	563	648	712	841	866	907	929	986	1033	1069	1107	1113	1145	1160	1170	1172	1246	1421	1424	1426	1512	1579	1687	1734	1735	1800	1842	1939	1958	1992	2081	2142	2166	2179	2194	2223	2227	2262	2335	2413	2448	2460	2531	2582	2594	2599	2635	2761	2787	2793	2831	2884	2913	2934	2961	2995	3003	3027	3042	3051	3054	3100	3290	3392	3494	3522	3640	3720	3739	3781	3806	3866
131	159	216	247	297	310	319	389	402	409	495	555	572	593	595	665	725	797	803	889	973	1015	1050	1090	1210	1215	1229	1316	1327	1340	1384	1404	1540	1542	1565	1577	1640	1702	1706	1752	1785	1804	1816	1894	2000	2040	2041	2078	2128	2137	2190	2202	2222	2257	2308	2337	2468	2506	2516	2549	2562	2570	2634	2680	2731	2764	2868	2879	2927	3006	3045	3177	3268	3308	3311	3329	3339	3427	3470	3531	3621	3678	3722	3730	3731	3766	3863	3864	3875
72	129	137	144	192	287	371	377	510	584	596	626	813	823	846	860	943	953	956	970	1026	1053	1062	1114	1117	1125	1134	1209	1277	1297	1314	1335	1364	1371	1457	1544	1596	1609	1616	1626	1637	1683	1698	1726	1756	1787	1807	1811	1829	1886	1913	2043	2057	2060	2072	2082	2340	2389	2394	2522	2607	2660	2679	2685	2813	2847	2973	3000	3061	3082	3170	3205	3273	3365	3395	3397	3431	3443	3473	3791	3801	3819	3825	3827	3849
0	24	52	100	115	116	127	153	175	214	219	257	283	298	348	369	476	568	657	694	703	965	987	1051	1060	1087	1098	1101	1132	1188	1318	1373	1507	1627	1697	1776	1810	1922	1971	2024	2127	2145	2176	2193	2195	2236	2280	2320	2424	2581	2601	2617	2621	2715	2774	2789	2820	2941	2958	2981	3059	3119	3167	3201	3298	3377	3399	3414	3515	3593	3661	3817	3824
119	184	186	335	355	362	651	736	774	806	833	966	971	1037	1061	1077	1094	1128	1220	1355	1469	1516	1522	1535	1592	1595	1665	1679	1986	2014	2018	2277	2291	2297	2508	2694	2786	2807	2812	2919	2971	3055	3077	3101	3146	3200	3324	3326	3330	3402	3412	3590	3612	3624	3815	3852
4	61	205	228	266	317	328	374	452	468	473	474	536	552	575	583	619	631	653	656	659	668	711	731	794	832	895	911	941	947	1001	1009	1025	1054	1058	1083	1099	1191	1195	1268	1339	1392	1420	1440	1453	1454	1485	1510	1607	1663	1670	1686	1707	1713	1762	1782	1796	1837	1885	1972	1991	2035	2037	2038	2047	2131	2156	2175	2192	2216	2284	2292	2298	2332	2342	2345	2409	2466	2470	2496	2507	2557	2579	2612	2624	2641	2691	2693	2698	2738	2749	2758	2788	2815	2833	2842	2852	2855	2883	2916	2926	2962	2974	2975	3108	3110	3193	3196	3253	3265	3280	3288	3299	3307	3319	3351	3355	3407	3486	3526	3578	3605	3639	3663	3741	3757	3782	3792	3805	3811	3818	3873
148	212	276	372	376	492	598	730	770	802	881	1105	1122	1144	1180	1198	1236	1437	1518	1526	1582	1591	1602	1705	1741	1817	2045	2051	2106	2111	2185	2259	2271	2390	2391	2469	2492	2513	2600	2647	2754	2863	3010	3014	3022	3104	3199	3228	3274	3282	3300	3316	3322	3333	3358	3469	3534	3603	3626	3643	3727	3749
30	534	701	702	762	827	837	842	871	1042	1116	1140	1214	1401	1414	1497	2150	2173	2187	2265	2417	2576	2604	2953	3050	3209	3249	3378	3580
3	299	432	482	497	608	624	663	887	919	1247	1264	1433	1466	1554	1562	1594	1625	1766	1912	1937	2064	2117	2275	2281	2431	2465	2574	2705	2791	2899	2933	3349	3566	3595	3606	3672	3708	3737
759	765	767	916	1045	1076	1217	1315	1431	1641	1768	1792	1919	2044	2447	2690	3026	3210	3510	3550	3865
